^H:\IONIZATION_CAMERA_MODULE-MASTER-05043D871CA1F9FE5A126BD63738D49C9DB90B78\0.1\SOURCE\WIN32\IONIZATIONCAMERATOOL\IONIZATIONCAMERATOOL\X64\DEBUG\IONIZATIONCAMERATOOL.EXE.INTERMEDIATE.MANIFEST
C:\WINDOWS\REGISTRATION\R000000000002.CLB
C:\WINDOWS\MICROSOFT.NET\FRAMEWORK\V2.0.50727\MSCORWKS.DLL
C:\WINDOWS\MICROSOFT.NET\FRAMEWORK\V4.0.30319\CLR.DLL
C:\PROGRAM FILES (X86)\MICROSOFT SDKS\WINDOWS\V7.0A\BIN\MT.EXE.CONFIG
H:\IONIZATION_CAMERA_MODULE-MASTER-05043D871CA1F9FE5A126BD63738D49C9DB90B78\0.1\SOURCE\WIN32\IONIZATIONCAMERATOOL\X64\DEBUG\IONIZATIONCAMERATOOL.EXE
