^H:\XPROM\IC_MODULE\HW_1_1\IONIZATION_CAMERA_MODULE-MASTER\2_2\WIN32\IONIZATIONCAMERATOOL\X64\RELEASE\IONIZATIONCAMERATOOL.EXE.INTERMEDIATE.MANIFEST
C:\WINDOWS\REGISTRATION\R000000000004.CLB
C:\WINDOWS\MICROSOFT.NET\FRAMEWORK\V2.0.50727\MSCORWKS.DLL
C:\WINDOWS\MICROSOFT.NET\FRAMEWORK\V4.0.30319\CLR.DLL
C:\PROGRAM FILES (X86)\MICROSOFT SDKS\WINDOWS\V7.0A\BIN\MT.EXE.CONFIG
H:\XPROM\IC_MODULE\HW_1_1\IONIZATION_CAMERA_MODULE-MASTER\2_2\WIN32\X64\RELEASE\IONIZATIONCAMERATOOL.EXE
