^H:\XPROM\IC_MODULE\HW_1_1\IONIZATION_CAMERA_MODULE-MASTER\2_2\WIN32\IONIZATIONCAMERATOOL\DEBUG\.NETFRAMEWORK,VERSION=V4.0.ASSEMBLYATTRIBUTES.OBJ|H:\XPROM\IC_MODULE\HW_1_1\IONIZATION_CAMERA_MODULE-MASTER\2_2\WIN32\IONIZATIONCAMERATOOL\DEBUG\ADC_HELPERS.OBJ|H:\XPROM\IC_MODULE\HW_1_1\IONIZATION_CAMERA_MODULE-MASTER\2_2\WIN32\IONIZATIONCAMERATOOL\DEBUG\AMPLITUDESSTOREFILE.OBJ|H:\XPROM\IC_MODULE\HW_1_1\IONIZATION_CAMERA_MODULE-MASTER\2_2\WIN32\IONIZATIONCAMERATOOL\DEBUG\APP.RES|H:\XPROM\IC_MODULE\HW_1_1\IONIZATION_CAMERA_MODULE-MASTER\2_2\WIN32\IONIZATIONCAMERATOOL\DEBUG\ASSEMBLYINFO.OBJ|H:\XPROM\IC_MODULE\HW_1_1\IONIZATION_CAMERA_MODULE-MASTER\2_2\WIN32\IONIZATIONCAMERATOOL\DEBUG\BYTECONVERSION.OBJ|H:\XPROM\IC_MODULE\HW_1_1\IONIZATION_CAMERA_MODULE-MASTER\2_2\WIN32\IONIZATIONCAMERATOOL\DEBUG\CRITICALSECTION.OBJ|H:\XPROM\IC_MODULE\HW_1_1\IONIZATION_CAMERA_MODULE-MASTER\2_2\WIN32\IONIZATIONCAMERATOOL\DEBUG\DEVBASECOMMANDS.OBJ|H:\XPROM\IC_MODULE\HW_1_1\IONIZATION_CAMERA_MODULE-MASTER\2_2\WIN32\IONIZATIONCAMERATOOL\DEBUG\EVENT.OBJ|H:\XPROM\IC_MODULE\HW_1_1\IONIZATION_CAMERA_MODULE-MASTER\2_2\WIN32\IONIZATIONCAMERATOOL\DEBUG\FTDIVIEW.OBJ|H:\XPROM\IC_MODULE\HW_1_1\IONIZATION_CAMERA_MODULE-MASTER\2_2\WIN32\IONIZATIONCAMERATOOL\DEBUG\FTDI_ACTIONINFO.OBJ|H:\XPROM\IC_MODULE\HW_1_1\IONIZATION_CAMERA_MODULE-MASTER\2_2\WIN32\IONIZATIONCAMERATOOL\DEBUG\IC_MODULE.OBJ|H:\XPROM\IC_MODULE\HW_1_1\IONIZATION_CAMERA_MODULE-MASTER\2_2\WIN32\IONIZATIONCAMERATOOL\DEBUG\IKY5_COMMANDS.OBJ|H:\XPROM\IC_MODULE\HW_1_1\IONIZATION_CAMERA_MODULE-MASTER\2_2\WIN32\IONIZATIONCAMERATOOL\DEBUG\IONIZATIONCAMERATOOL.OBJ|H:\XPROM\IC_MODULE\HW_1_1\IONIZATION_CAMERA_MODULE-MASTER\2_2\WIN32\IONIZATIONCAMERATOOL\DEBUG\KY5CUSTOMCOFFVIEW.OBJ|H:\XPROM\IC_MODULE\HW_1_1\IONIZATION_CAMERA_MODULE-MASTER\2_2\WIN32\IONIZATIONCAMERATOOL\DEBUG\KY5FAULTYVIEW.OBJ|H:\XPROM\IC_MODULE\HW_1_1\IONIZATION_CAMERA_MODULE-MASTER\2_2\WIN32\IONIZATIONCAMERATOOL\DEBUG\KY5MEASUREMENTVIEW.OBJ|H:\XPROM\IC_MODULE\HW_1_1\IONIZATION_CAMERA_MODULE-MASTER\2_2\WIN32\IONIZATIONCAMERATOOL\DEBUG\KY5VIEW.OBJ|H:\XPROM\IC_MODULE\HW_1_1\IONIZATION_CAMERA_MODULE-MASTER\2_2\WIN32\IONIZATIONCAMERATOOL\DEBUG\KY5_COMMANDS_19200.OBJ|H:\XPROM\IC_MODULE\HW_1_1\IONIZATION_CAMERA_MODULE-MASTER\2_2\WIN32\IONIZATIONCAMERATOOL\DEBUG\MAINVIEW.OBJ|H:\XPROM\IC_MODULE\HW_1_1\IONIZATION_CAMERA_MODULE-MASTER\2_2\WIN32\IONIZATIONCAMERATOOL\DEBUG\MXCOMM.OBJ|H:\XPROM\IC_MODULE\HW_1_1\IONIZATION_CAMERA_MODULE-MASTER\2_2\WIN32\IONIZATIONCAMERATOOL\DEBUG\OSCILORAMVIEW.OBJ|H:\XPROM\IC_MODULE\HW_1_1\IONIZATION_CAMERA_MODULE-MASTER\2_2\WIN32\IONIZATIONCAMERATOOL\DEBUG\SETUPMODULEVIEW.OBJ|H:\XPROM\IC_MODULE\HW_1_1\IONIZATION_CAMERA_MODULE-MASTER\2_2\WIN32\IONIZATIONCAMERATOOL\DEBUG\STATISTICA.OBJ|H:\XPROM\IC_MODULE\HW_1_1\IONIZATION_CAMERA_MODULE-MASTER\2_2\WIN32\IONIZATIONCAMERATOOL\DEBUG\STDAFX.OBJ|H:\XPROM\IC_MODULE\HW_1_1\IONIZATION_CAMERA_MODULE-MASTER\2_2\WIN32\IONIZATIONCAMERATOOL\DEBUG\STOPWATCH_WIN.OBJ
/ERRORREPORT:PROMPT /OUT:"H:\XPROM\ic_module\HW_1_1\Ionization_Camera_Module-master\2_2\Win32\Debug\IonizationCameraTool.exe" /INCREMENTAL /NOLOGO ftd2xx.lib kernel32.lib user32.lib gdi32.lib winspool.lib comdlg32.lib advapi32.lib shell32.lib ole32.lib oleaut32.lib uuid.lib odbc32.lib odbccp32.lib /ASSEMBLYRESOURCE:Debug\IonizationCameraTool.FTDIView.resources /ASSEMBLYRESOURCE:Debug\IonizationCameraTool.KY5FaultyView.resources /ASSEMBLYRESOURCE:Debug\IonizationCameraTool.KY5MeasurementView.resources /ASSEMBLYRESOURCE:Debug\IonizationCameraTool.KY5View.resources /ASSEMBLYRESOURCE:Debug\IonizationCameraTool.MainView.resources /ASSEMBLYRESOURCE:Debug\IonizationCameraTool.OsciloramView.resources /ASSEMBLYRESOURCE:Debug\IonizationCameraTool.SetupModuleView.resources /MANIFEST /ManifestFile:"Debug\IonizationCameraTool.exe.intermediate.manifest" /MANIFESTUAC:"level='asInvoker' uiAccess='false'" /DEBUG /PDB:"H:\XPROM\ic_module\HW_1_1\Ionization_Camera_Module-master\2_2\Win32\Debug\IonizationCameraTool.pdb" /ASSEMBLYDEBUG /SUBSYSTEM:WINDOWS /TLBID:1 /ENTRY:"main" /DYNAMICBASE /FIXED:NO /NXCOMPAT /MACHINE:X86 Debug\app.res
Debug\ADC_Helpers.obj
Debug\AmplitudesStoreFile.obj
Debug\AssemblyInfo.obj
Debug\ByteConversion.obj
Debug\CriticalSection.obj
Debug\DevBaseCommands.obj
Debug\Event.obj
Debug\FTDIView.obj
Debug\FTDI_ActionInfo.obj
Debug\IC_Module.obj
Debug\IKY5_Commands.obj
Debug\IonizationCameraTool.obj
Debug\KY5CustomCoffView.obj
Debug\KY5FaultyView.obj
Debug\KY5MeasurementView.obj
Debug\KY5View.obj
Debug\KY5_Commands_19200.obj
Debug\MainView.obj
Debug\MXCOMM.obj
Debug\OsciloramView.obj
Debug\SetupModuleView.obj
Debug\Statistica.obj
Debug\stdafx.obj
Debug\stopwatch_win.obj
"Debug\.NETFramework,Version=v4.0.AssemblyAttributes.obj"
