^D:\GITHUBANDGITLAB\IONIZATION_CAMERA_MODULE\0.1\SOURCE\WIN32\IONIZATIONCAMERATOOL\IONIZATIONCAMERATOOL\X64\RELEASE\.NETFRAMEWORK,VERSION=V4.0.ASSEMBLYATTRIBUTES.OBJ|D:\GITHUBANDGITLAB\IONIZATION_CAMERA_MODULE\0.1\SOURCE\WIN32\IONIZATIONCAMERATOOL\IONIZATIONCAMERATOOL\X64\RELEASE\APP.RES|D:\GITHUBANDGITLAB\IONIZATION_CAMERA_MODULE\0.1\SOURCE\WIN32\IONIZATIONCAMERATOOL\IONIZATIONCAMERATOOL\X64\RELEASE\ASSEMBLYINFO.OBJ|D:\GITHUBANDGITLAB\IONIZATION_CAMERA_MODULE\0.1\SOURCE\WIN32\IONIZATIONCAMERATOOL\IONIZATIONCAMERATOOL\X64\RELEASE\CRITICALSECTION.OBJ|D:\GITHUBANDGITLAB\IONIZATION_CAMERA_MODULE\0.1\SOURCE\WIN32\IONIZATIONCAMERATOOL\IONIZATIONCAMERATOOL\X64\RELEASE\DEVBASECOMMANDS.OBJ|D:\GITHUBANDGITLAB\IONIZATION_CAMERA_MODULE\0.1\SOURCE\WIN32\IONIZATIONCAMERATOOL\IONIZATIONCAMERATOOL\X64\RELEASE\EVENT.OBJ|D:\GITHUBANDGITLAB\IONIZATION_CAMERA_MODULE\0.1\SOURCE\WIN32\IONIZATIONCAMERATOOL\IONIZATIONCAMERATOOL\X64\RELEASE\FTDIVIEW.OBJ|D:\GITHUBANDGITLAB\IONIZATION_CAMERA_MODULE\0.1\SOURCE\WIN32\IONIZATIONCAMERATOOL\IONIZATIONCAMERATOOL\X64\RELEASE\FTDI_ACTIONINFO.OBJ|D:\GITHUBANDGITLAB\IONIZATION_CAMERA_MODULE\0.1\SOURCE\WIN32\IONIZATIONCAMERATOOL\IONIZATIONCAMERATOOL\X64\RELEASE\IC_MODULE.OBJ|D:\GITHUBANDGITLAB\IONIZATION_CAMERA_MODULE\0.1\SOURCE\WIN32\IONIZATIONCAMERATOOL\IONIZATIONCAMERATOOL\X64\RELEASE\IKY5_COMMANDS.OBJ|D:\GITHUBANDGITLAB\IONIZATION_CAMERA_MODULE\0.1\SOURCE\WIN32\IONIZATIONCAMERATOOL\IONIZATIONCAMERATOOL\X64\RELEASE\IONIZATIONCAMERATOOL.OBJ|D:\GITHUBANDGITLAB\IONIZATION_CAMERA_MODULE\0.1\SOURCE\WIN32\IONIZATIONCAMERATOOL\IONIZATIONCAMERATOOL\X64\RELEASE\KY5CUSTOMCOFFVIEW.OBJ|D:\GITHUBANDGITLAB\IONIZATION_CAMERA_MODULE\0.1\SOURCE\WIN32\IONIZATIONCAMERATOOL\IONIZATIONCAMERATOOL\X64\RELEASE\KY5FAULTYVIEW.OBJ|D:\GITHUBANDGITLAB\IONIZATION_CAMERA_MODULE\0.1\SOURCE\WIN32\IONIZATIONCAMERATOOL\IONIZATIONCAMERATOOL\X64\RELEASE\KY5MEASUREMENTVIEW.OBJ|D:\GITHUBANDGITLAB\IONIZATION_CAMERA_MODULE\0.1\SOURCE\WIN32\IONIZATIONCAMERATOOL\IONIZATIONCAMERATOOL\X64\RELEASE\KY5VIEW.OBJ|D:\GITHUBANDGITLAB\IONIZATION_CAMERA_MODULE\0.1\SOURCE\WIN32\IONIZATIONCAMERATOOL\IONIZATIONCAMERATOOL\X64\RELEASE\KY5_COMMANDS_19200.OBJ|D:\GITHUBANDGITLAB\IONIZATION_CAMERA_MODULE\0.1\SOURCE\WIN32\IONIZATIONCAMERATOOL\IONIZATIONCAMERATOOL\X64\RELEASE\MXCOMM.OBJ|D:\GITHUBANDGITLAB\IONIZATION_CAMERA_MODULE\0.1\SOURCE\WIN32\IONIZATIONCAMERATOOL\IONIZATIONCAMERATOOL\X64\RELEASE\OSCILORAMVIEW.OBJ|D:\GITHUBANDGITLAB\IONIZATION_CAMERA_MODULE\0.1\SOURCE\WIN32\IONIZATIONCAMERATOOL\IONIZATIONCAMERATOOL\X64\RELEASE\SETUPMODULEVIEW.OBJ|D:\GITHUBANDGITLAB\IONIZATION_CAMERA_MODULE\0.1\SOURCE\WIN32\IONIZATIONCAMERATOOL\IONIZATIONCAMERATOOL\X64\RELEASE\STDAFX.OBJ|D:\GITHUBANDGITLAB\IONIZATION_CAMERA_MODULE\0.1\SOURCE\WIN32\IONIZATIONCAMERATOOL\IONIZATIONCAMERATOOL\X64\RELEASE\STOPWATCH_WIN.OBJ
D:\GITHUBANDGITLAB\IONIZATION_CAMERA_MODULE\0.1\SOURCE\WIN32\IONIZATIONCAMERATOOL\IONIZATIONCAMERATOOL\LIBS\FTDI\AMD64\FTD2XX.LIB
C:\PROGRAM FILES (X86)\MICROSOFT SDKS\WINDOWS\V7.0A\LIB\X64\KERNEL32.LIB
C:\PROGRAM FILES (X86)\MICROSOFT SDKS\WINDOWS\V7.0A\LIB\X64\USER32.LIB
C:\PROGRAM FILES (X86)\MICROSOFT SDKS\WINDOWS\V7.0A\LIB\X64\GDI32.LIB
C:\PROGRAM FILES (X86)\MICROSOFT SDKS\WINDOWS\V7.0A\LIB\X64\WINSPOOL.LIB
C:\PROGRAM FILES (X86)\MICROSOFT SDKS\WINDOWS\V7.0A\LIB\X64\COMDLG32.LIB
C:\PROGRAM FILES (X86)\MICROSOFT SDKS\WINDOWS\V7.0A\LIB\X64\ADVAPI32.LIB
C:\PROGRAM FILES (X86)\MICROSOFT SDKS\WINDOWS\V7.0A\LIB\X64\SHELL32.LIB
C:\PROGRAM FILES (X86)\MICROSOFT SDKS\WINDOWS\V7.0A\LIB\X64\OLE32.LIB
C:\PROGRAM FILES (X86)\MICROSOFT SDKS\WINDOWS\V7.0A\LIB\X64\OLEAUT32.LIB
C:\PROGRAM FILES (X86)\MICROSOFT SDKS\WINDOWS\V7.0A\LIB\X64\UUID.LIB
C:\PROGRAM FILES (X86)\MICROSOFT SDKS\WINDOWS\V7.0A\LIB\X64\ODBC32.LIB
C:\PROGRAM FILES (X86)\MICROSOFT SDKS\WINDOWS\V7.0A\LIB\X64\ODBCCP32.LIB
D:\GITHUBANDGITLAB\IONIZATION_CAMERA_MODULE\0.1\SOURCE\WIN32\IONIZATIONCAMERATOOL\IONIZATIONCAMERATOOL\X64\RELEASE\APP.RES
D:\GITHUBANDGITLAB\IONIZATION_CAMERA_MODULE\0.1\SOURCE\WIN32\IONIZATIONCAMERATOOL\IONIZATIONCAMERATOOL\X64\RELEASE\ASSEMBLYINFO.OBJ
D:\GITHUBANDGITLAB\IONIZATION_CAMERA_MODULE\0.1\SOURCE\WIN32\IONIZATIONCAMERATOOL\IONIZATIONCAMERATOOL\X64\RELEASE\CRITICALSECTION.OBJ
D:\GITHUBANDGITLAB\IONIZATION_CAMERA_MODULE\0.1\SOURCE\WIN32\IONIZATIONCAMERATOOL\IONIZATIONCAMERATOOL\X64\RELEASE\DEVBASECOMMANDS.OBJ
D:\GITHUBANDGITLAB\IONIZATION_CAMERA_MODULE\0.1\SOURCE\WIN32\IONIZATIONCAMERATOOL\IONIZATIONCAMERATOOL\X64\RELEASE\EVENT.OBJ
D:\GITHUBANDGITLAB\IONIZATION_CAMERA_MODULE\0.1\SOURCE\WIN32\IONIZATIONCAMERATOOL\IONIZATIONCAMERATOOL\X64\RELEASE\FTDIVIEW.OBJ
D:\GITHUBANDGITLAB\IONIZATION_CAMERA_MODULE\0.1\SOURCE\WIN32\IONIZATIONCAMERATOOL\IONIZATIONCAMERATOOL\X64\RELEASE\FTDI_ACTIONINFO.OBJ
D:\GITHUBANDGITLAB\IONIZATION_CAMERA_MODULE\0.1\SOURCE\WIN32\IONIZATIONCAMERATOOL\IONIZATIONCAMERATOOL\X64\RELEASE\IC_MODULE.OBJ
D:\GITHUBANDGITLAB\IONIZATION_CAMERA_MODULE\0.1\SOURCE\WIN32\IONIZATIONCAMERATOOL\IONIZATIONCAMERATOOL\X64\RELEASE\IKY5_COMMANDS.OBJ
D:\GITHUBANDGITLAB\IONIZATION_CAMERA_MODULE\0.1\SOURCE\WIN32\IONIZATIONCAMERATOOL\IONIZATIONCAMERATOOL\X64\RELEASE\IONIZATIONCAMERATOOL.OBJ
D:\GITHUBANDGITLAB\IONIZATION_CAMERA_MODULE\0.1\SOURCE\WIN32\IONIZATIONCAMERATOOL\IONIZATIONCAMERATOOL\X64\RELEASE\KY5CUSTOMCOFFVIEW.OBJ
D:\GITHUBANDGITLAB\IONIZATION_CAMERA_MODULE\0.1\SOURCE\WIN32\IONIZATIONCAMERATOOL\IONIZATIONCAMERATOOL\X64\RELEASE\KY5FAULTYVIEW.OBJ
D:\GITHUBANDGITLAB\IONIZATION_CAMERA_MODULE\0.1\SOURCE\WIN32\IONIZATIONCAMERATOOL\IONIZATIONCAMERATOOL\X64\RELEASE\KY5MEASUREMENTVIEW.OBJ
D:\GITHUBANDGITLAB\IONIZATION_CAMERA_MODULE\0.1\SOURCE\WIN32\IONIZATIONCAMERATOOL\IONIZATIONCAMERATOOL\X64\RELEASE\KY5VIEW.OBJ
D:\GITHUBANDGITLAB\IONIZATION_CAMERA_MODULE\0.1\SOURCE\WIN32\IONIZATIONCAMERATOOL\IONIZATIONCAMERATOOL\X64\RELEASE\KY5_COMMANDS_19200.OBJ
D:\GITHUBANDGITLAB\IONIZATION_CAMERA_MODULE\0.1\SOURCE\WIN32\IONIZATIONCAMERATOOL\IONIZATIONCAMERATOOL\X64\RELEASE\MXCOMM.OBJ
D:\GITHUBANDGITLAB\IONIZATION_CAMERA_MODULE\0.1\SOURCE\WIN32\IONIZATIONCAMERATOOL\IONIZATIONCAMERATOOL\X64\RELEASE\OSCILORAMVIEW.OBJ
D:\GITHUBANDGITLAB\IONIZATION_CAMERA_MODULE\0.1\SOURCE\WIN32\IONIZATIONCAMERATOOL\IONIZATIONCAMERATOOL\X64\RELEASE\SETUPMODULEVIEW.OBJ
D:\GITHUBANDGITLAB\IONIZATION_CAMERA_MODULE\0.1\SOURCE\WIN32\IONIZATIONCAMERATOOL\IONIZATIONCAMERATOOL\X64\RELEASE\STDAFX.OBJ
D:\GITHUBANDGITLAB\IONIZATION_CAMERA_MODULE\0.1\SOURCE\WIN32\IONIZATIONCAMERATOOL\IONIZATIONCAMERATOOL\X64\RELEASE\STOPWATCH_WIN.OBJ
D:\GITHUBANDGITLAB\IONIZATION_CAMERA_MODULE\0.1\SOURCE\WIN32\IONIZATIONCAMERATOOL\IONIZATIONCAMERATOOL\X64\RELEASE\.NETFRAMEWORK,VERSION=V4.0.ASSEMBLYATTRIBUTES.OBJ
C:\WINDOWS\GLOBALIZATION\SORTING\SORTDEFAULT.NLS
C:\WINDOWS\MICROSOFT.NET\FRAMEWORK\V2.0.50727\MSCORWKS.DLL
C:\WINDOWS\MICROSOFT.NET\FRAMEWORK\V4.0.30319\CLR.DLL
C:\PROGRAM FILES (X86)\MICROSOFT VISUAL STUDIO 10.0\VC\BIN\X86_AMD64\LINK.EXE.CONFIG
C:\PROGRAM FILES (X86)\MICROSOFT VISUAL STUDIO 10.0\VC\LIB\AMD64\MSVCRT.LIB
C:\PROGRAM FILES (X86)\MICROSOFT VISUAL STUDIO 10.0\VC\LIB\AMD64\OLDNAMES.LIB
C:\PROGRAM FILES (X86)\MICROSOFT VISUAL STUDIO 10.0\VC\LIB\AMD64\MSVCMRT.LIB
C:\PROGRAM FILES (X86)\MICROSOFT VISUAL STUDIO 10.0\VC\LIB\AMD64\VCOMP.LIB
C:\PROGRAM FILES (X86)\MICROSOFT SDKS\WINDOWS\V7.0A\LIB\X64\MSCOREE.LIB
C:\PROGRAM FILES (X86)\MICROSOFT VISUAL STUDIO 10.0\VC\LIB\AMD64\MSVCPRT.LIB
C:\PROGRAM FILES (X86)\MICROSOFT VISUAL STUDIO 10.0\VC\LIB\AMD64\COMSUPP.LIB
C:\PROGRAM FILES (X86)\MICROSOFT VISUAL STUDIO 10.0\VC\BIN\CVTRES.EXE
C:\WINDOWS\SYSTEM32\TZRES.DLL
D:\GITHUBANDGITLAB\IONIZATION_CAMERA_MODULE\0.1\SOURCE\WIN32\IONIZATIONCAMERATOOL\IONIZATIONCAMERATOOL\X64\RELEASE\IONIZATIONCAMERATOOL.FTDIVIEW.RESOURCES
D:\GITHUBANDGITLAB\IONIZATION_CAMERA_MODULE\0.1\SOURCE\WIN32\IONIZATIONCAMERATOOL\IONIZATIONCAMERATOOL\X64\RELEASE\IONIZATIONCAMERATOOL.KY5FAULTYVIEW.RESOURCES
D:\GITHUBANDGITLAB\IONIZATION_CAMERA_MODULE\0.1\SOURCE\WIN32\IONIZATIONCAMERATOOL\IONIZATIONCAMERATOOL\X64\RELEASE\IONIZATIONCAMERATOOL.KY5MEASUREMENTVIEW.RESOURCES
D:\GITHUBANDGITLAB\IONIZATION_CAMERA_MODULE\0.1\SOURCE\WIN32\IONIZATIONCAMERATOOL\IONIZATIONCAMERATOOL\X64\RELEASE\IONIZATIONCAMERATOOL.KY5VIEW.RESOURCES
D:\GITHUBANDGITLAB\IONIZATION_CAMERA_MODULE\0.1\SOURCE\WIN32\IONIZATIONCAMERATOOL\IONIZATIONCAMERATOOL\X64\RELEASE\IONIZATIONCAMERATOOL.MAINVIEW.RESOURCES
D:\GITHUBANDGITLAB\IONIZATION_CAMERA_MODULE\0.1\SOURCE\WIN32\IONIZATIONCAMERATOOL\IONIZATIONCAMERATOOL\X64\RELEASE\IONIZATIONCAMERATOOL.OSCILORAMVIEW.RESOURCES
D:\GITHUBANDGITLAB\IONIZATION_CAMERA_MODULE\0.1\SOURCE\WIN32\IONIZATIONCAMERATOOL\IONIZATIONCAMERATOOL\X64\RELEASE\IONIZATIONCAMERATOOL.SETUPMODULEVIEW.RESOURCES
C:\PROGRAM FILES (X86)\MICROSOFT VISUAL STUDIO 10.0\VC\BIN\X86_AMD64\1049\LINKUI.DLL
