^D:\GITHUBANDGITLAB\IONIZATION_CAMERA_MODULE\0.1\SOURCE\WIN32\IONIZATIONCAMERATOOL\IONIZATIONCAMERATOOL\X64\RELEASE\IONIZATIONCAMERATOOL.EXE.INTERMEDIATE.MANIFEST
C:\WINDOWS\REGISTRATION\R00000000000D.CLB
C:\WINDOWS\MICROSOFT.NET\FRAMEWORK\V2.0.50727\MSCORWKS.DLL
C:\WINDOWS\MICROSOFT.NET\FRAMEWORK\V4.0.30319\CLR.DLL
C:\PROGRAM FILES (X86)\MICROSOFT SDKS\WINDOWS\V7.0A\BIN\MT.EXE.CONFIG
D:\GITHUBANDGITLAB\IONIZATION_CAMERA_MODULE\0.1\SOURCE\WIN32\IONIZATIONCAMERATOOL\X64\RELEASE\IONIZATIONCAMERATOOL.EXE
