^C:\USERS\MOLOTALIEV\APPDATA\LOCAL\TEMP\.NETFRAMEWORK,VERSION=V4.0.ASSEMBLYATTRIBUTES.CPP
E:\RP_CODE\IC\Релизные версии\26,12,2018\IONIZATION_CAMERA_MODULE-MASTER\2_2\WIN32\IONIZATIONCAMERATOOL\RELEASE\.NETFRAMEWORK,VERSION=V4.0.ASSEMBLYATTRIBUTES.OBJ
E:\RP_CODE\IC\РЕЛИЗНЫЕ ВЕРСИИ\26,12,2018\IONIZATION_CAMERA_MODULE-MASTER\2_2\WIN32\IONIZATIONCAMERATOOL\RELEASE\VC100.PDB
^E:\RP_CODE\IC\РЕЛИЗНЫЕ ВЕРСИИ\26,12,2018\IONIZATION_CAMERA_MODULE-MASTER\2_2\WIN32\IONIZATIONCAMERATOOL\STDAFX.CPP
E:\RP_CODE\IC\Релизные версии\26,12,2018\IONIZATION_CAMERA_MODULE-MASTER\2_2\WIN32\IONIZATIONCAMERATOOL\RELEASE\IONIZATIONCAMERATOOL.PCH
E:\RP_CODE\IC\Релизные версии\26,12,2018\IONIZATION_CAMERA_MODULE-MASTER\2_2\WIN32\IONIZATIONCAMERATOOL\RELEASE\STDAFX.OBJ
E:\RP_CODE\IC\РЕЛИЗНЫЕ ВЕРСИИ\26,12,2018\IONIZATION_CAMERA_MODULE-MASTER\2_2\WIN32\IONIZATIONCAMERATOOL\RELEASE\VC100.PDB
^E:\RP_CODE\IC\РЕЛИЗНЫЕ ВЕРСИИ\26,12,2018\IONIZATION_CAMERA_MODULE-MASTER\2_2\WIN32\IONIZATIONCAMERATOOL\ADC_HELPERS.CPP|E:\RP_CODE\IC\РЕЛИЗНЫЕ ВЕРСИИ\26,12,2018\IONIZATION_CAMERA_MODULE-MASTER\2_2\WIN32\IONIZATIONCAMERATOOL\AMPLITUDESSTOREFILE.CPP|E:\RP_CODE\IC\РЕЛИЗНЫЕ ВЕРСИИ\26,12,2018\IONIZATION_CAMERA_MODULE-MASTER\2_2\WIN32\IONIZATIONCAMERATOOL\ASSEMBLYINFO.CPP|E:\RP_CODE\IC\РЕЛИЗНЫЕ ВЕРСИИ\26,12,2018\IONIZATION_CAMERA_MODULE-MASTER\2_2\WIN32\IONIZATIONCAMERATOOL\BYTECONVERSION.CPP|E:\RP_CODE\IC\РЕЛИЗНЫЕ ВЕРСИИ\26,12,2018\IONIZATION_CAMERA_MODULE-MASTER\2_2\WIN32\IONIZATIONCAMERATOOL\CRITICALSECTION.CPP|E:\RP_CODE\IC\РЕЛИЗНЫЕ ВЕРСИИ\26,12,2018\IONIZATION_CAMERA_MODULE-MASTER\2_2\WIN32\IONIZATIONCAMERATOOL\DEVBASECOMMANDS.CPP|E:\RP_CODE\IC\РЕЛИЗНЫЕ ВЕРСИИ\26,12,2018\IONIZATION_CAMERA_MODULE-MASTER\2_2\WIN32\IONIZATIONCAMERATOOL\EVENT.CPP|E:\RP_CODE\IC\РЕЛИЗНЫЕ ВЕРСИИ\26,12,2018\IONIZATION_CAMERA_MODULE-MASTER\2_2\WIN32\IONIZATIONCAMERATOOL\FTDIVIEW.CPP|E:\RP_CODE\IC\РЕЛИЗНЫЕ ВЕРСИИ\26,12,2018\IONIZATION_CAMERA_MODULE-MASTER\2_2\WIN32\IONIZATIONCAMERATOOL\FTDI_ACTIONINFO.CPP|E:\RP_CODE\IC\РЕЛИЗНЫЕ ВЕРСИИ\26,12,2018\IONIZATION_CAMERA_MODULE-MASTER\2_2\WIN32\IONIZATIONCAMERATOOL\IC_MODULE.CPP|E:\RP_CODE\IC\РЕЛИЗНЫЕ ВЕРСИИ\26,12,2018\IONIZATION_CAMERA_MODULE-MASTER\2_2\WIN32\IONIZATIONCAMERATOOL\IKY5_COMMANDS.CPP|E:\RP_CODE\IC\РЕЛИЗНЫЕ ВЕРСИИ\26,12,2018\IONIZATION_CAMERA_MODULE-MASTER\2_2\WIN32\IONIZATIONCAMERATOOL\IONIZATIONCAMERATOOL.CPP|E:\RP_CODE\IC\РЕЛИЗНЫЕ ВЕРСИИ\26,12,2018\IONIZATION_CAMERA_MODULE-MASTER\2_2\WIN32\IONIZATIONCAMERATOOL\KY5CUSTOMCOFFVIEW.CPP|E:\RP_CODE\IC\РЕЛИЗНЫЕ ВЕРСИИ\26,12,2018\IONIZATION_CAMERA_MODULE-MASTER\2_2\WIN32\IONIZATIONCAMERATOOL\KY5FAULTYVIEW.CPP|E:\RP_CODE\IC\РЕЛИЗНЫЕ ВЕРСИИ\26,12,2018\IONIZATION_CAMERA_MODULE-MASTER\2_2\WIN32\IONIZATIONCAMERATOOL\KY5MEASUREMENTVIEW.CPP|E:\RP_CODE\IC\РЕЛИЗНЫЕ ВЕРСИИ\26,12,2018\IONIZATION_CAMERA_MODULE-MASTER\2_2\WIN32\IONIZATIONCAMERATOOL\KY5VIEW.CPP|E:\RP_CODE\IC\РЕЛИЗНЫЕ ВЕРСИИ\26,12,2018\IONIZATION_CAMERA_MODULE-MASTER\2_2\WIN32\IONIZATIONCAMERATOOL\KY5_COMMANDS_19200.CPP|E:\RP_CODE\IC\РЕЛИЗНЫЕ ВЕРСИИ\26,12,2018\IONIZATION_CAMERA_MODULE-MASTER\2_2\WIN32\IONIZATIONCAMERATOOL\MAINVIEW.CPP|E:\RP_CODE\IC\РЕЛИЗНЫЕ ВЕРСИИ\26,12,2018\IONIZATION_CAMERA_MODULE-MASTER\2_2\WIN32\IONIZATIONCAMERATOOL\MXCOMM.CPP|E:\RP_CODE\IC\РЕЛИЗНЫЕ ВЕРСИИ\26,12,2018\IONIZATION_CAMERA_MODULE-MASTER\2_2\WIN32\IONIZATIONCAMERATOOL\OSCILORAMVIEW.CPP|E:\RP_CODE\IC\РЕЛИЗНЫЕ ВЕРСИИ\26,12,2018\IONIZATION_CAMERA_MODULE-MASTER\2_2\WIN32\IONIZATIONCAMERATOOL\SETUPMODULEVIEW.CPP|E:\RP_CODE\IC\РЕЛИЗНЫЕ ВЕРСИИ\26,12,2018\IONIZATION_CAMERA_MODULE-MASTER\2_2\WIN32\IONIZATIONCAMERATOOL\STATISTICA.CPP|E:\RP_CODE\IC\РЕЛИЗНЫЕ ВЕРСИИ\26,12,2018\IONIZATION_CAMERA_MODULE-MASTER\2_2\WIN32\IONIZATIONCAMERATOOL\STOPWATCH_WIN.CPP
E:\RP_CODE\IC\Релизные версии\26,12,2018\IONIZATION_CAMERA_MODULE-MASTER\2_2\WIN32\IONIZATIONCAMERATOOL\RELEASE\BYTECONVERSION.OBJ
E:\RP_CODE\IC\Релизные версии\26,12,2018\IONIZATION_CAMERA_MODULE-MASTER\2_2\WIN32\IONIZATIONCAMERATOOL\RELEASE\DEVBASECOMMANDS.OBJ
E:\RP_CODE\IC\Релизные версии\26,12,2018\IONIZATION_CAMERA_MODULE-MASTER\2_2\WIN32\IONIZATIONCAMERATOOL\RELEASE\IC_MODULE.OBJ
E:\RP_CODE\IC\Релизные версии\26,12,2018\IONIZATION_CAMERA_MODULE-MASTER\2_2\WIN32\IONIZATIONCAMERATOOL\RELEASE\KY5FAULTYVIEW.OBJ
E:\RP_CODE\IC\Релизные версии\26,12,2018\IONIZATION_CAMERA_MODULE-MASTER\2_2\WIN32\IONIZATIONCAMERATOOL\RELEASE\KY5_COMMANDS_19200.OBJ
E:\RP_CODE\IC\Релизные версии\26,12,2018\IONIZATION_CAMERA_MODULE-MASTER\2_2\WIN32\IONIZATIONCAMERATOOL\RELEASE\OSCILORAMVIEW.OBJ
E:\RP_CODE\IC\Релизные версии\26,12,2018\IONIZATION_CAMERA_MODULE-MASTER\2_2\WIN32\IONIZATIONCAMERATOOL\RELEASE\AMPLITUDESSTOREFILE.OBJ
E:\RP_CODE\IC\Релизные версии\26,12,2018\IONIZATION_CAMERA_MODULE-MASTER\2_2\WIN32\IONIZATIONCAMERATOOL\RELEASE\FTDIVIEW.OBJ
E:\RP_CODE\IC\Релизные версии\26,12,2018\IONIZATION_CAMERA_MODULE-MASTER\2_2\WIN32\IONIZATIONCAMERATOOL\RELEASE\IONIZATIONCAMERATOOL.OBJ
E:\RP_CODE\IC\Релизные версии\26,12,2018\IONIZATION_CAMERA_MODULE-MASTER\2_2\WIN32\IONIZATIONCAMERATOOL\RELEASE\SETUPMODULEVIEW.OBJ
E:\RP_CODE\IC\Релизные версии\26,12,2018\IONIZATION_CAMERA_MODULE-MASTER\2_2\WIN32\IONIZATIONCAMERATOOL\RELEASE\ASSEMBLYINFO.OBJ
E:\RP_CODE\IC\Релизные версии\26,12,2018\IONIZATION_CAMERA_MODULE-MASTER\2_2\WIN32\IONIZATIONCAMERATOOL\RELEASE\CRITICALSECTION.OBJ
E:\RP_CODE\IC\Релизные версии\26,12,2018\IONIZATION_CAMERA_MODULE-MASTER\2_2\WIN32\IONIZATIONCAMERATOOL\RELEASE\IKY5_COMMANDS.OBJ
E:\RP_CODE\IC\Релизные версии\26,12,2018\IONIZATION_CAMERA_MODULE-MASTER\2_2\WIN32\IONIZATIONCAMERATOOL\RELEASE\KY5VIEW.OBJ
E:\RP_CODE\IC\Релизные версии\26,12,2018\IONIZATION_CAMERA_MODULE-MASTER\2_2\WIN32\IONIZATIONCAMERATOOL\RELEASE\MXCOMM.OBJ
E:\RP_CODE\IC\Релизные версии\26,12,2018\IONIZATION_CAMERA_MODULE-MASTER\2_2\WIN32\IONIZATIONCAMERATOOL\RELEASE\STATISTICA.OBJ
E:\RP_CODE\IC\Релизные версии\26,12,2018\IONIZATION_CAMERA_MODULE-MASTER\2_2\WIN32\IONIZATIONCAMERATOOL\RELEASE\STOPWATCH_WIN.OBJ
E:\RP_CODE\IC\Релизные версии\26,12,2018\IONIZATION_CAMERA_MODULE-MASTER\2_2\WIN32\IONIZATIONCAMERATOOL\RELEASE\ADC_HELPERS.OBJ
E:\RP_CODE\IC\Релизные версии\26,12,2018\IONIZATION_CAMERA_MODULE-MASTER\2_2\WIN32\IONIZATIONCAMERATOOL\RELEASE\EVENT.OBJ
E:\RP_CODE\IC\Релизные версии\26,12,2018\IONIZATION_CAMERA_MODULE-MASTER\2_2\WIN32\IONIZATIONCAMERATOOL\RELEASE\FTDI_ACTIONINFO.OBJ
E:\RP_CODE\IC\Релизные версии\26,12,2018\IONIZATION_CAMERA_MODULE-MASTER\2_2\WIN32\IONIZATIONCAMERATOOL\RELEASE\KY5CUSTOMCOFFVIEW.OBJ
E:\RP_CODE\IC\Релизные версии\26,12,2018\IONIZATION_CAMERA_MODULE-MASTER\2_2\WIN32\IONIZATIONCAMERATOOL\RELEASE\KY5MEASUREMENTVIEW.OBJ
E:\RP_CODE\IC\Релизные версии\26,12,2018\IONIZATION_CAMERA_MODULE-MASTER\2_2\WIN32\IONIZATIONCAMERATOOL\RELEASE\MAINVIEW.OBJ
^E:\RP_CODE\IC\РЕЛИЗНЫЕ ВЕРСИИ\26,12,2018\IONIZATION_CAMERA_MODULE-MASTER\2_2\WIN32\IONIZATIONCAMERATOOL\CRITICALSECTION.CPP
E:\RP_CODE\IC\РЕЛИЗНЫЕ ВЕРСИИ\26,12,2018\IONIZATION_CAMERA_MODULE-MASTER\2_2\WIN32\IONIZATIONCAMERATOOL\RELEASE\VC100.PDB
^E:\RP_CODE\IC\РЕЛИЗНЫЕ ВЕРСИИ\26,12,2018\IONIZATION_CAMERA_MODULE-MASTER\2_2\WIN32\IONIZATIONCAMERATOOL\DEVBASECOMMANDS.CPP
E:\RP_CODE\IC\РЕЛИЗНЫЕ ВЕРСИИ\26,12,2018\IONIZATION_CAMERA_MODULE-MASTER\2_2\WIN32\IONIZATIONCAMERATOOL\RELEASE\VC100.PDB
^E:\RP_CODE\IC\РЕЛИЗНЫЕ ВЕРСИИ\26,12,2018\IONIZATION_CAMERA_MODULE-MASTER\2_2\WIN32\IONIZATIONCAMERATOOL\EVENT.CPP
E:\RP_CODE\IC\РЕЛИЗНЫЕ ВЕРСИИ\26,12,2018\IONIZATION_CAMERA_MODULE-MASTER\2_2\WIN32\IONIZATIONCAMERATOOL\RELEASE\VC100.PDB
^E:\RP_CODE\IC\РЕЛИЗНЫЕ ВЕРСИИ\26,12,2018\IONIZATION_CAMERA_MODULE-MASTER\2_2\WIN32\IONIZATIONCAMERATOOL\FTDI_ACTIONINFO.CPP
E:\RP_CODE\IC\РЕЛИЗНЫЕ ВЕРСИИ\26,12,2018\IONIZATION_CAMERA_MODULE-MASTER\2_2\WIN32\IONIZATIONCAMERATOOL\RELEASE\VC100.PDB
^E:\RP_CODE\IC\РЕЛИЗНЫЕ ВЕРСИИ\26,12,2018\IONIZATION_CAMERA_MODULE-MASTER\2_2\WIN32\IONIZATIONCAMERATOOL\IKY5_COMMANDS.CPP
E:\RP_CODE\IC\РЕЛИЗНЫЕ ВЕРСИИ\26,12,2018\IONIZATION_CAMERA_MODULE-MASTER\2_2\WIN32\IONIZATIONCAMERATOOL\RELEASE\VC100.PDB
^E:\RP_CODE\IC\РЕЛИЗНЫЕ ВЕРСИИ\26,12,2018\IONIZATION_CAMERA_MODULE-MASTER\2_2\WIN32\IONIZATIONCAMERATOOL\KY5CUSTOMCOFFVIEW.CPP
E:\RP_CODE\IC\РЕЛИЗНЫЕ ВЕРСИИ\26,12,2018\IONIZATION_CAMERA_MODULE-MASTER\2_2\WIN32\IONIZATIONCAMERATOOL\RELEASE\VC100.PDB
^E:\RP_CODE\IC\РЕЛИЗНЫЕ ВЕРСИИ\26,12,2018\IONIZATION_CAMERA_MODULE-MASTER\2_2\WIN32\IONIZATIONCAMERATOOL\KY5FAULTYVIEW.CPP
E:\RP_CODE\IC\РЕЛИЗНЫЕ ВЕРСИИ\26,12,2018\IONIZATION_CAMERA_MODULE-MASTER\2_2\WIN32\IONIZATIONCAMERATOOL\RELEASE\VC100.PDB
^E:\RP_CODE\IC\РЕЛИЗНЫЕ ВЕРСИИ\26,12,2018\IONIZATION_CAMERA_MODULE-MASTER\2_2\WIN32\IONIZATIONCAMERATOOL\KY5MEASUREMENTVIEW.CPP
E:\RP_CODE\IC\РЕЛИЗНЫЕ ВЕРСИИ\26,12,2018\IONIZATION_CAMERA_MODULE-MASTER\2_2\WIN32\IONIZATIONCAMERATOOL\RELEASE\VC100.PDB
^E:\RP_CODE\IC\РЕЛИЗНЫЕ ВЕРСИИ\26,12,2018\IONIZATION_CAMERA_MODULE-MASTER\2_2\WIN32\IONIZATIONCAMERATOOL\KY5VIEW.CPP
E:\RP_CODE\IC\РЕЛИЗНЫЕ ВЕРСИИ\26,12,2018\IONIZATION_CAMERA_MODULE-MASTER\2_2\WIN32\IONIZATIONCAMERATOOL\RELEASE\VC100.PDB
^E:\RP_CODE\IC\РЕЛИЗНЫЕ ВЕРСИИ\26,12,2018\IONIZATION_CAMERA_MODULE-MASTER\2_2\WIN32\IONIZATIONCAMERATOOL\KY5_COMMANDS_19200.CPP
E:\RP_CODE\IC\РЕЛИЗНЫЕ ВЕРСИИ\26,12,2018\IONIZATION_CAMERA_MODULE-MASTER\2_2\WIN32\IONIZATIONCAMERATOOL\RELEASE\VC100.PDB
^E:\RP_CODE\IC\РЕЛИЗНЫЕ ВЕРСИИ\26,12,2018\IONIZATION_CAMERA_MODULE-MASTER\2_2\WIN32\IONIZATIONCAMERATOOL\MXCOMM.CPP
E:\RP_CODE\IC\РЕЛИЗНЫЕ ВЕРСИИ\26,12,2018\IONIZATION_CAMERA_MODULE-MASTER\2_2\WIN32\IONIZATIONCAMERATOOL\RELEASE\VC100.PDB
^E:\RP_CODE\IC\РЕЛИЗНЫЕ ВЕРСИИ\26,12,2018\IONIZATION_CAMERA_MODULE-MASTER\2_2\WIN32\IONIZATIONCAMERATOOL\STOPWATCH_WIN.CPP
E:\RP_CODE\IC\РЕЛИЗНЫЕ ВЕРСИИ\26,12,2018\IONIZATION_CAMERA_MODULE-MASTER\2_2\WIN32\IONIZATIONCAMERATOOL\RELEASE\VC100.PDB
^E:\RP_CODE\IC\РЕЛИЗНЫЕ ВЕРСИИ\26,12,2018\IONIZATION_CAMERA_MODULE-MASTER\2_2\WIN32\IONIZATIONCAMERATOOL\ADC_HELPERS.CPP|E:\RP_CODE\IC\РЕЛИЗНЫЕ ВЕРСИИ\26,12,2018\IONIZATION_CAMERA_MODULE-MASTER\2_2\WIN32\IONIZATIONCAMERATOOL\AMPLITUDESSTOREFILE.CPP|E:\RP_CODE\IC\РЕЛИЗНЫЕ ВЕРСИИ\26,12,2018\IONIZATION_CAMERA_MODULE-MASTER\2_2\WIN32\IONIZATIONCAMERATOOL\ASSEMBLYINFO.CPP|E:\RP_CODE\IC\РЕЛИЗНЫЕ ВЕРСИИ\26,12,2018\IONIZATION_CAMERA_MODULE-MASTER\2_2\WIN32\IONIZATIONCAMERATOOL\BYTECONVERSION.CPP|E:\RP_CODE\IC\РЕЛИЗНЫЕ ВЕРСИИ\26,12,2018\IONIZATION_CAMERA_MODULE-MASTER\2_2\WIN32\IONIZATIONCAMERATOOL\FTDIVIEW.CPP|E:\RP_CODE\IC\РЕЛИЗНЫЕ ВЕРСИИ\26,12,2018\IONIZATION_CAMERA_MODULE-MASTER\2_2\WIN32\IONIZATIONCAMERATOOL\IC_MODULE.CPP|E:\RP_CODE\IC\РЕЛИЗНЫЕ ВЕРСИИ\26,12,2018\IONIZATION_CAMERA_MODULE-MASTER\2_2\WIN32\IONIZATIONCAMERATOOL\IONIZATIONCAMERATOOL.CPP|E:\RP_CODE\IC\РЕЛИЗНЫЕ ВЕРСИИ\26,12,2018\IONIZATION_CAMERA_MODULE-MASTER\2_2\WIN32\IONIZATIONCAMERATOOL\MAINVIEW.CPP|E:\RP_CODE\IC\РЕЛИЗНЫЕ ВЕРСИИ\26,12,2018\IONIZATION_CAMERA_MODULE-MASTER\2_2\WIN32\IONIZATIONCAMERATOOL\OSCILORAMVIEW.CPP|E:\RP_CODE\IC\РЕЛИЗНЫЕ ВЕРСИИ\26,12,2018\IONIZATION_CAMERA_MODULE-MASTER\2_2\WIN32\IONIZATIONCAMERATOOL\SETUPMODULEVIEW.CPP|E:\RP_CODE\IC\РЕЛИЗНЫЕ ВЕРСИИ\26,12,2018\IONIZATION_CAMERA_MODULE-MASTER\2_2\WIN32\IONIZATIONCAMERATOOL\STATISTICA.CPP
E:\RP_CODE\IC\Релизные версии\26,12,2018\IONIZATION_CAMERA_MODULE-MASTER\2_2\WIN32\IONIZATIONCAMERATOOL\RELEASE\AMPLITUDESSTOREFILE.OBJ
E:\RP_CODE\IC\Релизные версии\26,12,2018\IONIZATION_CAMERA_MODULE-MASTER\2_2\WIN32\IONIZATIONCAMERATOOL\RELEASE\MAINVIEW.OBJ
E:\RP_CODE\IC\Релизные версии\26,12,2018\IONIZATION_CAMERA_MODULE-MASTER\2_2\WIN32\IONIZATIONCAMERATOOL\RELEASE\BYTECONVERSION.OBJ
E:\RP_CODE\IC\Релизные версии\26,12,2018\IONIZATION_CAMERA_MODULE-MASTER\2_2\WIN32\IONIZATIONCAMERATOOL\RELEASE\IC_MODULE.OBJ
E:\RP_CODE\IC\Релизные версии\26,12,2018\IONIZATION_CAMERA_MODULE-MASTER\2_2\WIN32\IONIZATIONCAMERATOOL\RELEASE\SETUPMODULEVIEW.OBJ
E:\RP_CODE\IC\Релизные версии\26,12,2018\IONIZATION_CAMERA_MODULE-MASTER\2_2\WIN32\IONIZATIONCAMERATOOL\RELEASE\ADC_HELPERS.OBJ
E:\RP_CODE\IC\Релизные версии\26,12,2018\IONIZATION_CAMERA_MODULE-MASTER\2_2\WIN32\IONIZATIONCAMERATOOL\RELEASE\FTDIVIEW.OBJ
E:\RP_CODE\IC\Релизные версии\26,12,2018\IONIZATION_CAMERA_MODULE-MASTER\2_2\WIN32\IONIZATIONCAMERATOOL\RELEASE\OSCILORAMVIEW.OBJ
E:\RP_CODE\IC\Релизные версии\26,12,2018\IONIZATION_CAMERA_MODULE-MASTER\2_2\WIN32\IONIZATIONCAMERATOOL\RELEASE\ASSEMBLYINFO.OBJ
E:\RP_CODE\IC\Релизные версии\26,12,2018\IONIZATION_CAMERA_MODULE-MASTER\2_2\WIN32\IONIZATIONCAMERATOOL\RELEASE\IONIZATIONCAMERATOOL.OBJ
E:\RP_CODE\IC\Релизные версии\26,12,2018\IONIZATION_CAMERA_MODULE-MASTER\2_2\WIN32\IONIZATIONCAMERATOOL\RELEASE\STATISTICA.OBJ
^E:\RP_CODE\IC\РЕЛИЗНЫЕ ВЕРСИИ\26,12,2018\IONIZATION_CAMERA_MODULE-MASTER\2_2\WIN32\IONIZATIONCAMERATOOL\ADC_HELPERS.CPP
E:\RP_CODE\IC\РЕЛИЗНЫЕ ВЕРСИИ\26,12,2018\IONIZATION_CAMERA_MODULE-MASTER\2_2\WIN32\IONIZATIONCAMERATOOL\RELEASE\VC100.PDB
^E:\RP_CODE\IC\РЕЛИЗНЫЕ ВЕРСИИ\26,12,2018\IONIZATION_CAMERA_MODULE-MASTER\2_2\WIN32\IONIZATIONCAMERATOOL\AMPLITUDESSTOREFILE.CPP
E:\RP_CODE\IC\РЕЛИЗНЫЕ ВЕРСИИ\26,12,2018\IONIZATION_CAMERA_MODULE-MASTER\2_2\WIN32\IONIZATIONCAMERATOOL\RELEASE\VC100.PDB
^E:\RP_CODE\IC\РЕЛИЗНЫЕ ВЕРСИИ\26,12,2018\IONIZATION_CAMERA_MODULE-MASTER\2_2\WIN32\IONIZATIONCAMERATOOL\ASSEMBLYINFO.CPP
E:\RP_CODE\IC\РЕЛИЗНЫЕ ВЕРСИИ\26,12,2018\IONIZATION_CAMERA_MODULE-MASTER\2_2\WIN32\IONIZATIONCAMERATOOL\RELEASE\VC100.PDB
^E:\RP_CODE\IC\РЕЛИЗНЫЕ ВЕРСИИ\26,12,2018\IONIZATION_CAMERA_MODULE-MASTER\2_2\WIN32\IONIZATIONCAMERATOOL\BYTECONVERSION.CPP
E:\RP_CODE\IC\РЕЛИЗНЫЕ ВЕРСИИ\26,12,2018\IONIZATION_CAMERA_MODULE-MASTER\2_2\WIN32\IONIZATIONCAMERATOOL\RELEASE\VC100.PDB
^E:\RP_CODE\IC\РЕЛИЗНЫЕ ВЕРСИИ\26,12,2018\IONIZATION_CAMERA_MODULE-MASTER\2_2\WIN32\IONIZATIONCAMERATOOL\FTDIVIEW.CPP
E:\RP_CODE\IC\РЕЛИЗНЫЕ ВЕРСИИ\26,12,2018\IONIZATION_CAMERA_MODULE-MASTER\2_2\WIN32\IONIZATIONCAMERATOOL\RELEASE\VC100.PDB
^E:\RP_CODE\IC\РЕЛИЗНЫЕ ВЕРСИИ\26,12,2018\IONIZATION_CAMERA_MODULE-MASTER\2_2\WIN32\IONIZATIONCAMERATOOL\STATISTICA.CPP
E:\RP_CODE\IC\РЕЛИЗНЫЕ ВЕРСИИ\26,12,2018\IONIZATION_CAMERA_MODULE-MASTER\2_2\WIN32\IONIZATIONCAMERATOOL\RELEASE\VC100.PDB
^E:\RP_CODE\IC\РЕЛИЗНЫЕ ВЕРСИИ\26,12,2018\IONIZATION_CAMERA_MODULE-MASTER\2_2\WIN32\IONIZATIONCAMERATOOL\IC_MODULE.CPP|E:\RP_CODE\IC\РЕЛИЗНЫЕ ВЕРСИИ\26,12,2018\IONIZATION_CAMERA_MODULE-MASTER\2_2\WIN32\IONIZATIONCAMERATOOL\IONIZATIONCAMERATOOL.CPP|E:\RP_CODE\IC\РЕЛИЗНЫЕ ВЕРСИИ\26,12,2018\IONIZATION_CAMERA_MODULE-MASTER\2_2\WIN32\IONIZATIONCAMERATOOL\MAINVIEW.CPP|E:\RP_CODE\IC\РЕЛИЗНЫЕ ВЕРСИИ\26,12,2018\IONIZATION_CAMERA_MODULE-MASTER\2_2\WIN32\IONIZATIONCAMERATOOL\OSCILORAMVIEW.CPP|E:\RP_CODE\IC\РЕЛИЗНЫЕ ВЕРСИИ\26,12,2018\IONIZATION_CAMERA_MODULE-MASTER\2_2\WIN32\IONIZATIONCAMERATOOL\SETUPMODULEVIEW.CPP
E:\RP_CODE\IC\Релизные версии\26,12,2018\IONIZATION_CAMERA_MODULE-MASTER\2_2\WIN32\IONIZATIONCAMERATOOL\RELEASE\MAINVIEW.OBJ
E:\RP_CODE\IC\Релизные версии\26,12,2018\IONIZATION_CAMERA_MODULE-MASTER\2_2\WIN32\IONIZATIONCAMERATOOL\RELEASE\IC_MODULE.OBJ
E:\RP_CODE\IC\Релизные версии\26,12,2018\IONIZATION_CAMERA_MODULE-MASTER\2_2\WIN32\IONIZATIONCAMERATOOL\RELEASE\SETUPMODULEVIEW.OBJ
E:\RP_CODE\IC\Релизные версии\26,12,2018\IONIZATION_CAMERA_MODULE-MASTER\2_2\WIN32\IONIZATIONCAMERATOOL\RELEASE\OSCILORAMVIEW.OBJ
E:\RP_CODE\IC\Релизные версии\26,12,2018\IONIZATION_CAMERA_MODULE-MASTER\2_2\WIN32\IONIZATIONCAMERATOOL\RELEASE\IONIZATIONCAMERATOOL.OBJ
^E:\RP_CODE\IC\РЕЛИЗНЫЕ ВЕРСИИ\26,12,2018\IONIZATION_CAMERA_MODULE-MASTER\2_2\WIN32\IONIZATIONCAMERATOOL\IC_MODULE.CPP
E:\RP_CODE\IC\РЕЛИЗНЫЕ ВЕРСИИ\26,12,2018\IONIZATION_CAMERA_MODULE-MASTER\2_2\WIN32\IONIZATIONCAMERATOOL\RELEASE\VC100.PDB
^E:\RP_CODE\IC\РЕЛИЗНЫЕ ВЕРСИИ\26,12,2018\IONIZATION_CAMERA_MODULE-MASTER\2_2\WIN32\IONIZATIONCAMERATOOL\IONIZATIONCAMERATOOL.CPP
E:\RP_CODE\IC\РЕЛИЗНЫЕ ВЕРСИИ\26,12,2018\IONIZATION_CAMERA_MODULE-MASTER\2_2\WIN32\IONIZATIONCAMERATOOL\RELEASE\VC100.PDB
^E:\RP_CODE\IC\РЕЛИЗНЫЕ ВЕРСИИ\26,12,2018\IONIZATION_CAMERA_MODULE-MASTER\2_2\WIN32\IONIZATIONCAMERATOOL\MAINVIEW.CPP
E:\RP_CODE\IC\РЕЛИЗНЫЕ ВЕРСИИ\26,12,2018\IONIZATION_CAMERA_MODULE-MASTER\2_2\WIN32\IONIZATIONCAMERATOOL\RELEASE\VC100.PDB
^E:\RP_CODE\IC\РЕЛИЗНЫЕ ВЕРСИИ\26,12,2018\IONIZATION_CAMERA_MODULE-MASTER\2_2\WIN32\IONIZATIONCAMERATOOL\OSCILORAMVIEW.CPP
E:\RP_CODE\IC\РЕЛИЗНЫЕ ВЕРСИИ\26,12,2018\IONIZATION_CAMERA_MODULE-MASTER\2_2\WIN32\IONIZATIONCAMERATOOL\RELEASE\VC100.PDB
^E:\RP_CODE\IC\РЕЛИЗНЫЕ ВЕРСИИ\26,12,2018\IONIZATION_CAMERA_MODULE-MASTER\2_2\WIN32\IONIZATIONCAMERATOOL\SETUPMODULEVIEW.CPP
E:\RP_CODE\IC\РЕЛИЗНЫЕ ВЕРСИИ\26,12,2018\IONIZATION_CAMERA_MODULE-MASTER\2_2\WIN32\IONIZATIONCAMERATOOL\RELEASE\VC100.PDB
