^E:\RP_CODE\IC\РЕЛИЗНЫЕ ВЕРСИИ\26,12,2018\IONIZATION_CAMERA_MODULE-MASTER\2_2\WIN32\IONIZATIONCAMERATOOL\RELEASE\.NETFRAMEWORK,VERSION=V4.0.ASSEMBLYATTRIBUTES.OBJ|E:\RP_CODE\IC\РЕЛИЗНЫЕ ВЕРСИИ\26,12,2018\IONIZATION_CAMERA_MODULE-MASTER\2_2\WIN32\IONIZATIONCAMERATOOL\RELEASE\ADC_HELPERS.OBJ|E:\RP_CODE\IC\РЕЛИЗНЫЕ ВЕРСИИ\26,12,2018\IONIZATION_CAMERA_MODULE-MASTER\2_2\WIN32\IONIZATIONCAMERATOOL\RELEASE\AMPLITUDESSTOREFILE.OBJ|E:\RP_CODE\IC\РЕЛИЗНЫЕ ВЕРСИИ\26,12,2018\IONIZATION_CAMERA_MODULE-MASTER\2_2\WIN32\IONIZATIONCAMERATOOL\RELEASE\APP.RES|E:\RP_CODE\IC\РЕЛИЗНЫЕ ВЕРСИИ\26,12,2018\IONIZATION_CAMERA_MODULE-MASTER\2_2\WIN32\IONIZATIONCAMERATOOL\RELEASE\ASSEMBLYINFO.OBJ|E:\RP_CODE\IC\РЕЛИЗНЫЕ ВЕРСИИ\26,12,2018\IONIZATION_CAMERA_MODULE-MASTER\2_2\WIN32\IONIZATIONCAMERATOOL\RELEASE\BYTECONVERSION.OBJ|E:\RP_CODE\IC\РЕЛИЗНЫЕ ВЕРСИИ\26,12,2018\IONIZATION_CAMERA_MODULE-MASTER\2_2\WIN32\IONIZATIONCAMERATOOL\RELEASE\CRITICALSECTION.OBJ|E:\RP_CODE\IC\РЕЛИЗНЫЕ ВЕРСИИ\26,12,2018\IONIZATION_CAMERA_MODULE-MASTER\2_2\WIN32\IONIZATIONCAMERATOOL\RELEASE\DEVBASECOMMANDS.OBJ|E:\RP_CODE\IC\РЕЛИЗНЫЕ ВЕРСИИ\26,12,2018\IONIZATION_CAMERA_MODULE-MASTER\2_2\WIN32\IONIZATIONCAMERATOOL\RELEASE\EVENT.OBJ|E:\RP_CODE\IC\РЕЛИЗНЫЕ ВЕРСИИ\26,12,2018\IONIZATION_CAMERA_MODULE-MASTER\2_2\WIN32\IONIZATIONCAMERATOOL\RELEASE\FTDIVIEW.OBJ|E:\RP_CODE\IC\РЕЛИЗНЫЕ ВЕРСИИ\26,12,2018\IONIZATION_CAMERA_MODULE-MASTER\2_2\WIN32\IONIZATIONCAMERATOOL\RELEASE\FTDI_ACTIONINFO.OBJ|E:\RP_CODE\IC\РЕЛИЗНЫЕ ВЕРСИИ\26,12,2018\IONIZATION_CAMERA_MODULE-MASTER\2_2\WIN32\IONIZATIONCAMERATOOL\RELEASE\IC_MODULE.OBJ|E:\RP_CODE\IC\РЕЛИЗНЫЕ ВЕРСИИ\26,12,2018\IONIZATION_CAMERA_MODULE-MASTER\2_2\WIN32\IONIZATIONCAMERATOOL\RELEASE\IKY5_COMMANDS.OBJ|E:\RP_CODE\IC\РЕЛИЗНЫЕ ВЕРСИИ\26,12,2018\IONIZATION_CAMERA_MODULE-MASTER\2_2\WIN32\IONIZATIONCAMERATOOL\RELEASE\IONIZATIONCAMERATOOL.OBJ|E:\RP_CODE\IC\РЕЛИЗНЫЕ ВЕРСИИ\26,12,2018\IONIZATION_CAMERA_MODULE-MASTER\2_2\WIN32\IONIZATIONCAMERATOOL\RELEASE\KY5CUSTOMCOFFVIEW.OBJ|E:\RP_CODE\IC\РЕЛИЗНЫЕ ВЕРСИИ\26,12,2018\IONIZATION_CAMERA_MODULE-MASTER\2_2\WIN32\IONIZATIONCAMERATOOL\RELEASE\KY5FAULTYVIEW.OBJ|E:\RP_CODE\IC\РЕЛИЗНЫЕ ВЕРСИИ\26,12,2018\IONIZATION_CAMERA_MODULE-MASTER\2_2\WIN32\IONIZATIONCAMERATOOL\RELEASE\KY5MEASUREMENTVIEW.OBJ|E:\RP_CODE\IC\РЕЛИЗНЫЕ ВЕРСИИ\26,12,2018\IONIZATION_CAMERA_MODULE-MASTER\2_2\WIN32\IONIZATIONCAMERATOOL\RELEASE\KY5VIEW.OBJ|E:\RP_CODE\IC\РЕЛИЗНЫЕ ВЕРСИИ\26,12,2018\IONIZATION_CAMERA_MODULE-MASTER\2_2\WIN32\IONIZATIONCAMERATOOL\RELEASE\KY5_COMMANDS_19200.OBJ|E:\RP_CODE\IC\РЕЛИЗНЫЕ ВЕРСИИ\26,12,2018\IONIZATION_CAMERA_MODULE-MASTER\2_2\WIN32\IONIZATIONCAMERATOOL\RELEASE\MAINVIEW.OBJ|E:\RP_CODE\IC\РЕЛИЗНЫЕ ВЕРСИИ\26,12,2018\IONIZATION_CAMERA_MODULE-MASTER\2_2\WIN32\IONIZATIONCAMERATOOL\RELEASE\MXCOMM.OBJ|E:\RP_CODE\IC\РЕЛИЗНЫЕ ВЕРСИИ\26,12,2018\IONIZATION_CAMERA_MODULE-MASTER\2_2\WIN32\IONIZATIONCAMERATOOL\RELEASE\OSCILORAMVIEW.OBJ|E:\RP_CODE\IC\РЕЛИЗНЫЕ ВЕРСИИ\26,12,2018\IONIZATION_CAMERA_MODULE-MASTER\2_2\WIN32\IONIZATIONCAMERATOOL\RELEASE\SETUPMODULEVIEW.OBJ|E:\RP_CODE\IC\РЕЛИЗНЫЕ ВЕРСИИ\26,12,2018\IONIZATION_CAMERA_MODULE-MASTER\2_2\WIN32\IONIZATIONCAMERATOOL\RELEASE\STATISTICA.OBJ|E:\RP_CODE\IC\РЕЛИЗНЫЕ ВЕРСИИ\26,12,2018\IONIZATION_CAMERA_MODULE-MASTER\2_2\WIN32\IONIZATIONCAMERATOOL\RELEASE\STDAFX.OBJ|E:\RP_CODE\IC\РЕЛИЗНЫЕ ВЕРСИИ\26,12,2018\IONIZATION_CAMERA_MODULE-MASTER\2_2\WIN32\IONIZATIONCAMERATOOL\RELEASE\STOPWATCH_WIN.OBJ
E:\RP_CODE\IC\Релизные версии\26,12,2018\IONIZATION_CAMERA_MODULE-MASTER\2_2\WIN32\RELEASE\IONIZATIONCAMERATOOL.EXE
E:\RP_CODE\IC\Релизные версии\26,12,2018\IONIZATION_CAMERA_MODULE-MASTER\2_2\WIN32\IONIZATIONCAMERATOOL\RELEASE\IONIZATIONCAMERATOOL.EXE.INTERMEDIATE.MANIFEST
E:\RP_CODE\IC\РЕЛИЗНЫЕ ВЕРСИИ\26,12,2018\IONIZATION_CAMERA_MODULE-MASTER\2_2\WIN32\RELEASE\IONIZATIONCAMERATOOL.PDB
