Control Word: 0x7d
State Word: 0x6
Thershold Trigger: 100 LSB
Local  Dosa: -7 LSB
Global Dosa: 413638 LSB
Avergage Amplitude meaurements :0
Quanity Measure Amplitudes: 2489
Counter Events Trigger: 3
Time Exposition: 999 mS
---------------------------------------------------------------------------
RAW Amplitudes data
---------------------------------------------------------------------------
Time(mS)	 Value(LSB)
0,40		  2
0,80		  2
1,20		  -2
1,61		  -5
2,01		  -6
2,41		  -7
2,81		  -8
3,21		  -8
3,61		  -10
4,01		  -11
4,42		  -11
4,82		  -12
5,22		  -13
5,62		  -13
6,02		  -13
6,42		  -13
6,82		  -13
7,22		  -13
7,63		  -13
8,03		  -12
8,43		  -11
8,83		  -11
9,23		  -11
9,63		  -10
10,03		  -10
10,44		  -10
10,84		  -10
11,24		  -11
11,64		  -11
12,04		  -12
12,44		  -13
12,84		  -13
13,25		  -13
13,65		  -14
14,05		  -14
14,45		  -14
14,85		  -14
15,25		  -14
15,65		  -14
16,05		  -13
16,46		  -13
16,86		  -12
17,26		  -12
17,66		  -13
18,06		  -13
18,46		  -13
18,86		  -12
19,27		  -12
19,67		  -12
20,07		  -13
20,47		  -13
20,87		  -13
21,27		  -9
21,67		  -7
22,08		  -7
22,48		  -6
22,88		  -6
23,28		  -5
23,68		  -4
24,08		  -3
24,48		  -2
24,88		  -1
25,29		  0
25,69		  1
26,09		  2
26,49		  2
26,89		  2
27,29		  2
27,69		  2
28,10		  1
28,50		  1
28,90		  1
29,30		  0
29,70		  -2
30,10		  -3
30,50		  -4
30,91		  -4
31,31		  -5
31,71		  -5
32,11		  -4
32,51		  -4
32,91		  -4
33,31		  -3
33,71		  -2
34,12		  -1
34,52		  -1
34,92		  0
35,32		  0
35,72		  0
36,12		  0
36,52		  0
36,93		  -1
37,33		  -1
37,73		  -1
38,13		  -2
38,53		  -3
38,93		  -3
39,33		  -4
39,74		  -5
40,14		  -4
40,54		  -4
40,94		  -4
41,34		  -3
41,74		  -2
42,14		  -2
42,54		  -1
42,95		  -1
43,35		  -1
43,75		  -1
44,15		  -1
44,55		  -1
44,95		  -1
45,35		  -1
45,76		  -2
46,16		  -3
46,56		  -3
46,96		  -3
47,36		  -3
47,76		  -3
48,16		  -3
48,57		  -2
48,97		  -2
49,37		  -2
49,77		  -1
50,17		  0
50,57		  0
50,97		  1
51,37		  2
51,78		  2
52,18		  1
52,58		  1
52,98		  0
53,38		  0
53,78		  0
54,18		  -1
54,59		  -1
54,99		  -2
55,39		  -3
55,79		  -4
56,19		  -4
56,59		  -3
56,99		  -3
57,40		  -2
57,80		  -1
58,20		  -1
58,60		  0
59,00		  1
59,40		  1
59,80		  2
60,20		  2
60,61		  2
61,01		  2
61,41		  2
61,81		  1
62,21		  0
62,61		  -1
63,01		  -2
63,42		  -2
63,82		  -3
64,22		  -4
64,62		  -4
65,02		  -5
65,42		  -5
65,82		  -4
66,23		  -4
66,63		  -3
67,03		  -2
67,43		  -2
67,83		  -1
68,23		  -1
68,63		  -1
69,03		  -1
69,44		  -1
69,84		  -1
70,24		  -1
70,64		  -1
71,04		  -2
71,44		  -2
71,84		  -3
72,25		  -3
72,65		  -3
73,05		  -3
73,45		  -3
73,85		  -3
74,25		  -2
74,65		  -2
75,06		  -1
75,46		  -1
75,86		  0
76,26		  1
76,66		  1
77,06		  1
77,46		  0
77,87		  0
78,27		  -1
78,67		  -1
79,07		  -2
79,47		  -2
79,87		  -2
80,27		  -3
80,67		  -3
81,08		  -3
81,48		  -3
81,88		  -2
82,28		  -2
82,68		  -1
83,08		  0
83,48		  0
83,89		  1
84,29		  2
84,69		  3
85,09		  3
85,49		  3
85,89		  3
86,29		  2
86,70		  2
87,10		  1
87,50		  0
87,90		  -1
88,30		  -2
88,70		  -2
89,10		  -2
89,50		  -2
89,91		  -2
90,31		  -2
90,71		  -2
91,11		  -2
91,51		  -1
91,91		  0
92,31		  1
92,72		  1
93,12		  1
93,52		  1
93,92		  1
94,32		  1
94,72		  1
95,12		  0
95,53		  0
95,93		  -1
96,33		  -2
96,73		  -3
97,13		  -4
97,53		  -4
97,93		  -4
98,33		  -4
98,74		  -4
99,14		  -3
99,54		  -3
99,94		  -3
100,34		  -2
100,74		  -1
101,14		  -1
101,55		  0
101,95		  1
102,35		  1
102,75		  1
103,15		  0
103,55		  0
103,95		  -1
104,36		  -1
104,76		  -2
105,16		  -2
105,56		  -3
105,96		  -3
106,36		  -3
106,76		  -3
107,16		  -3
107,57		  -3
107,97		  -2
108,37		  -1
108,77		  0
109,17		  0
109,57		  0
109,97		  1
110,38		  1
110,78		  1
111,18		  2
111,58		  2
111,98		  1
112,38		  1
112,78		  0
113,19		  -1
113,59		  -1
113,99		  -2
114,39		  -2
114,79		  -2
115,19		  -2
115,59		  -2
115,99		  -2
116,40		  -2
116,80		  -1
117,20		  0
117,60		  0
118,00		  1
118,40		  1
118,80		  1
119,21		  1
119,61		  0
120,01		  0
120,41		  0
120,81		  -1
121,21		  -1
121,61		  -2
122,02		  -3
122,42		  -3
122,82		  -4
123,22		  -4
123,62		  -4
124,02		  -3
124,42		  -2
124,82		  -1
125,23		  -1
125,63		  -1
126,03		  0
126,43		  0
126,83		  1
127,23		  1
127,63		  1
128,04		  1
128,44		  0
128,84		  -1
129,24		  -2
129,64		  -3
130,04		  -4
130,44		  -5
130,85		  -5
131,25		  -5
131,65		  -6
132,05		  -6
132,45		  -6
132,85		  -5
133,25		  -5
133,65		  -4
134,06		  -3
134,46		  -2
134,86		  -1
135,26		  -1
135,66		  0
136,06		  0
136,46		  0
136,87		  0
137,27		  0
137,67		  -1
138,07		  -2
138,47		  -2
138,87		  -3
139,27		  -3
139,68		  -3
140,08		  -4
140,48		  -3
140,88		  -3
141,28		  -3
141,68		  -3
142,08		  -2
142,48		  -1
142,89		  -1
143,29		  0
143,69		  1
144,09		  1
144,49		  1
144,89		  0
145,29		  0
145,70		  0
146,10		  -1
146,50		  -2
146,90		  -2
147,30		  -2
147,70		  -2
148,10		  -2
148,51		  -2
148,91		  -2
149,31		  -1
149,71		  0
150,11		  0
150,51		  1
150,91		  1
151,31		  1
151,72		  1
152,12		  2
152,52		  2
152,92		  2
153,32		  2
153,72		  1
154,12		  0
154,53		  0
154,93		  -1
155,33		  -2
155,73		  -2
156,13		  -2
156,53		  -2
156,93		  -1
157,34		  -1
157,74		  0
158,14		  1
158,54		  2
158,94		  3
159,34		  4
159,74		  5
160,15		  5
160,55		  5
160,95		  5
161,35		  4
161,75		  4
162,15		  3
162,55		  2
162,95		  1
163,36		  1
163,76		  0
164,16		  -1
164,56		  -2
164,96		  -2
165,36		  -2
165,76		  -1
166,17		  0
166,57		  0
166,97		  1
167,37		  1
167,77		  2
168,17		  2
168,57		  3
168,98		  3
169,38		  3
169,78		  3
170,18		  3
170,58		  2
170,98		  2
171,38		  1
171,78		  0
172,19		  0
172,59		  0
172,99		  0
173,39		  -1
173,79		  -1
174,19		  0
174,59		  0
175,00		  1
175,40		  1
175,80		  2
176,20		  2
176,60		  2
177,00		  2
177,40		  2
177,81		  1
178,21		  1
178,61		  0
179,01		  0
179,41		  -1
179,81		  -2
180,21		  -3
180,61		  -3
181,02		  -3
181,42		  -3
181,82		  -3
182,22		  -3
182,62		  -2
183,02		  -1
183,42		  -1
183,83		  0
184,23		  0
184,63		  1
185,03		  1
185,43		  2
185,83		  2
186,23		  2
186,64		  1
187,04		  0
187,44		  0
187,84		  -1
188,24		  -2
188,64		  -2
189,04		  -2
189,44		  -3
189,85		  -3
190,25		  -3
190,65		  -3
191,05		  -3
191,45		  -2
191,85		  -1
192,25		  0
192,66		  1
193,06		  1
193,46		  2
193,86		  2
194,26		  2
194,66		  2
195,06		  1
195,47		  0
195,87		  0
196,27		  -1
196,67		  -2
197,07		  -2
197,47		  -2
197,87		  -2
198,27		  -1
198,68		  -1
199,08		  -1
199,48		  0
199,88		  1
200,28		  1
200,68		  2
201,08		  3
201,49		  3
201,89		  4
202,29		  3
202,69		  4
203,09		  3
203,49		  3
203,89		  2
204,30		  1
204,70		  0
205,10		  -1
205,50		  -2
205,90		  -2
206,30		  -2
206,70		  -3
207,10		  -3
207,51		  -3
207,91		  -2
208,31		  -1
208,71		  -1
209,11		  0
209,51		  1
209,91		  2
210,32		  2
210,72		  3
211,12		  3
211,52		  3
211,92		  2
212,32		  2
212,72		  1
213,13		  0
213,53		  -1
213,93		  -1
214,33		  -2
214,73		  -2
215,13		  -2
215,53		  -2
215,93		  -2
216,34		  -2
216,74		  -1
217,14		  -1
217,54		  0
217,94		  0
218,34		  0
218,74		  1
219,15		  1
219,55		  1
219,95		  1
220,35		  1
220,75		  0
221,15		  0
221,55		  -1
221,96		  -1
222,36		  -1
222,76		  -2
223,16		  -2
223,56		  -1
223,96		  -1
224,36		  -1
224,76		  0
225,17		  1
225,57		  1
225,97		  2
226,37		  2
226,77		  3
227,17		  3
227,57		  3
227,98		  3
228,38		  3
228,78		  2
229,18		  1
229,58		  0
229,98		  0
230,38		  -1
230,79		  -2
231,19		  -2
231,59		  -2
231,99		  -2
232,39		  -3
232,79		  -2
233,19		  -1
233,60		  0
234,00		  0
234,40		  1
234,80		  2
235,20		  3
235,60		  2
236,00		  3
236,40		  3
236,81		  2
237,21		  1
237,61		  1
238,01		  0
238,41		  -1
238,81		  -2
239,21		  -3
239,62		  -4
240,02		  -4
240,42		  -5
240,82		  -5
241,22		  -4
241,62		  -3
242,02		  -3
242,43		  -2
242,83		  -2
243,23		  -1
243,63		  -1
244,03		  0
244,43		  1
244,83		  1
245,23		  0
245,64		  -1
246,04		  -1
246,44		  -2
246,84		  -3
247,24		  -3
247,64		  -4
248,04		  -4
248,45		  -5
248,85		  -5
249,25		  -5
249,65		  -5
250,05		  -4
250,45		  -4
250,85		  -3
251,26		  -2
251,66		  -2
252,06		  -1
252,46		  0
252,86		  0
253,26		  -1
253,66		  -1
254,06		  -1
254,47		  -1
254,87		  -2
255,27		  -2
255,67		  -2
256,07		  -2
256,47		  -3
256,87		  -2
257,28		  -2
257,68		  -1
258,08		  -1
258,48		  0
258,88		  0
259,28		  1
259,68		  1
260,09		  2
260,49		  2
260,89		  2
261,29		  2
261,69		  1
262,09		  1
262,49		  0
262,89		  -1
263,30		  -2
263,70		  -2
264,10		  -2
264,50		  -3
264,90		  -3
265,30		  -3
265,70		  -2
266,11		  -2
266,51		  -1
266,91		  0
267,31		  1
267,71		  1
268,11		  2
268,51		  2
268,92		  3
269,32		  3
269,72		  2
270,12		  3
270,52		  2
270,92		  0
271,32		  -1
271,72		  -2
272,13		  -3
272,53		  -4
272,93		  -5
273,33		  -5
273,73		  -5
274,13		  -5
274,53		  -5
274,94		  -4
275,34		  -3
275,74		  -2
276,14		  -1
276,54		  0
276,94		  1
277,34		  1
277,75		  1
278,15		  1
278,55		  1
278,95		  0
279,35		  0
279,75		  0
280,15		  -1
280,55		  -2
280,96		  -3
281,36		  -3
281,76		  -3
282,16		  -3
282,56		  -3
282,96		  -2
283,36		  -2
283,77		  -2
284,17		  -1
284,57		  0
284,97		  0
285,37		  1
285,77		  1
286,17		  2
286,58		  1
286,98		  1
287,38		  1
287,78		  1
288,18		  0
288,58		  -1
288,98		  -1
289,38		  -1
289,79		  -1
290,19		  -2
290,59		  -2
290,99		  -1
291,39		  -1
291,79		  -1
292,19		  0
292,60		  1
293,00		  1
293,40		  1
293,80		  1
294,20		  2
294,60		  1
295,00		  1
295,41		  0
295,81		  0
296,21		  0
296,61		  -2
297,01		  -2
297,41		  -3
297,81		  -3
298,21		  -3
298,62		  -3
299,02		  -2
299,42		  -2
299,82		  -2
300,22		  -1
300,62		  0
301,02		  1
301,43		  1
301,83		  2
302,23		  3
302,63		  3
303,03		  2
303,43		  1
303,83		  1
304,24		  0
304,64		  -1
305,04		  -2
305,44		  -2
305,84		  -3
306,24		  -4
306,64		  -4
307,05		  -4
307,45		  -4
307,85		  -4
308,25		  -3
308,65		  -1
309,05		  0
309,45		  0
309,85		  1
310,26		  2
310,66		  3
311,06		  3
311,46		  3
311,86		  4
312,26		  3
312,66		  2
313,07		  1
313,47		  1
313,87		  0
314,27		  -2
314,67		  -2
315,07		  -2
315,47		  -2
315,88		  -3
316,28		  -3
316,68		  -2
317,08		  -1
317,48		  -1
317,88		  0
318,28		  1
318,68		  2
319,09		  2
319,49		  2
319,89		  2
320,29		  2
320,69		  1
321,09		  1
321,49		  0
321,90		  0
322,30		  -1
322,70		  -2
323,10		  -2
323,50		  -2
323,90		  -2
324,30		  -2
324,71		  -1
325,11		  -1
325,51		  -1
325,91		  0
326,31		  1
326,71		  2
327,11		  2
327,51		  2
327,92		  2
328,32		  2
328,72		  1
329,12		  0
329,52		  0
329,92		  -1
330,32		  -2
330,73		  -2
331,13		  -2
331,53		  -2
331,93		  -3
332,33		  -3
332,73		  -3
333,13		  -2
333,54		  -2
333,94		  -1
334,34		  0
334,74		  0
335,14		  1
335,54		  1
335,94		  1
336,34		  2
336,75		  1
337,15		  1
337,55		  0
337,95		  0
338,35		  -1
338,75		  -2
339,15		  -2
339,56		  -3
339,96		  -3
340,36		  -2
340,76		  -2
341,16		  -1
341,56		  -1
341,96		  -1
342,37		  0
342,77		  1
343,17		  2
343,57		  3
343,97		  3
344,37		  3
344,77		  2
345,17		  2
345,58		  2
345,98		  1
346,38		  1
346,78		  0
347,18		  -1
347,58		  -2
347,98		  -3
348,39		  -4
348,79		  -4
349,19		  -4
349,59		  -3
349,99		  -3
350,39		  -2
350,79		  -2
351,20		  -2
351,60		  -1
352,00		  0
352,40		  0
352,80		  1
353,20		  1
353,60		  0
354,00		  0
354,41		  -1
354,81		  -1
355,21		  -2
355,61		  -3
356,01		  -3
356,41		  -4
356,81		  -4
357,22		  -4
357,62		  -4
358,02		  -4
358,42		  -4
358,82		  -4
359,22		  -3
359,62		  -2
360,03		  -2
360,43		  -2
360,83		  -2
361,23		  -2
361,63		  -2
362,03		  -2
362,43		  -2
362,83		  -3
363,24		  -4
363,64		  -4
364,04		  -5
364,44		  -5
364,84		  -5
365,24		  -5
365,64		  -5
366,05		  -4
366,45		  -4
366,85		  -4
367,25		  -3
367,65		  -2
368,05		  -1
368,45		  -1
368,86		  0
369,26		  0
369,66		  0
370,06		  0
370,46		  0
370,86		  -1
371,26		  -1
371,66		  -2
372,07		  -2
372,47		  -3
372,87		  -4
373,27		  -4
373,67		  -4
374,07		  -4
374,47		  -3
374,88		  -2
375,28		  -1
375,68		  0
376,08		  0
376,48		  1
376,88		  1
377,28		  2
377,69		  2
378,09		  2
378,49		  3
378,89		  2
379,29		  1
379,69		  0
380,09		  -1
380,49		  -1
380,90		  -2
381,30		  -3
381,70		  -3
382,10		  -3
382,50		  -4
382,90		  -4
383,30		  -3
383,71		  -3
384,11		  -2
384,51		  -1
384,91		  0
385,31		  1
385,71		  1
386,11		  1
386,52		  1
386,92		  1
387,32		  1
387,72		  0
388,12		  0
388,52		  -1
388,92		  -2
389,33		  -3
389,73		  -3
390,13		  -4
390,53		  -4
390,93		  -4
391,33		  -3
391,73		  -3
392,13		  -2
392,54		  -2
392,94		  -1
393,34		  -1
393,74		  0
394,14		  0
394,54		  0
394,94		  0
395,35		  0
395,75		  0
396,15		  -1
396,55		  -1
396,95		  -1
397,35		  -2
397,75		  -2
398,16		  -2
398,56		  -3
398,96		  -3
399,36		  -3
399,76		  -3
400,16		  -2
400,56		  -1
400,96		  0
401,37		  0
401,77		  1
402,17		  1
402,57		  1
402,97		  1
403,37		  1
403,77		  1
404,18		  1
404,58		  0
404,98		  -1
405,38		  -1
405,78		  -2
406,18		  -2
406,58		  -2
406,99		  -3
407,39		  -2
407,79		  -2
408,19		  -2
408,59		  -1
408,99		  -1
409,39		  0
409,79		  1
410,20		  2
410,60		  2
411,00		  2
411,40		  2
411,80		  1
412,20		  1
412,60		  1
413,01		  0
413,41		  -1
413,81		  -1
414,21		  -2
414,61		  -3
415,01		  -3
415,41		  -3
415,82		  -3
416,22		  -3
416,62		  -3
417,02		  -2
417,42		  -2
417,82		  -1
418,22		  -1
418,62		  0
419,03		  1
419,43		  1
419,83		  2
420,23		  2
420,63		  1
421,03		  1
421,43		  0
421,84		  0
422,24		  0
422,64		  -1
423,04		  -2
423,44		  -2
423,84		  -2
424,24		  -2
424,65		  -2
425,05		  -2
425,45		  -1
425,85		  -1
426,25		  0
426,65		  0
427,05		  1
427,45		  1
427,86		  1
428,26		  1
428,66		  1
429,06		  1
429,46		  1
429,86		  1
430,26		  0
430,67		  -1
431,07		  -1
431,47		  -2
431,87		  -2
432,27		  -2
432,67		  -2
433,07		  -1
433,48		  0
433,88		  0
434,28		  1
434,68		  1
435,08		  2
435,48		  3
435,88		  3
436,28		  4
436,69		  4
437,09		  4
437,49		  3
437,89		  3
438,29		  2
438,69		  1
439,09		  0
439,50		  0
439,90		  0
440,30		  -1
440,70		  -1
441,10		  -1
441,50		  -1
441,90		  0
442,31		  0
442,71		  2
443,11		  3
443,51		  3
443,91		  3
444,31		  3
444,71		  4
445,11		  4
445,52		  3
445,92		  3
446,32		  3
446,72		  2
447,12		  2
447,52		  1
447,92		  0
448,33		  0
448,73		  -1
449,13		  -1
449,53		  -1
449,93		  -1
450,33		  -1
450,73		  0
451,14		  1
451,54		  2
451,94		  2
452,34		  3
452,74		  3
453,14		  3
453,54		  3
453,94		  3
454,35		  2
454,75		  2
455,15		  1
455,55		  1
455,95		  0
456,35		  0
456,75		  -1
457,16		  -1
457,56		  -1
457,96		  -1
458,36		  -1
458,76		  0
459,16		  0
459,56		  0
459,97		  1
460,37		  1
460,77		  1
461,17		  2
461,57		  2
461,97		  2
462,37		  2
462,78		  1
463,18		  1
463,58		  0
463,98		  0
464,38		  -1
464,78		  -1
465,18		  -1
465,58		  -1
465,99		  -1
466,39		  -1
466,79		  -1
467,19		  -1
467,59		  0
467,99		  0
468,39		  1
468,80		  1
469,20		  1
469,60		  1
470,00		  1
470,40		  0
470,80		  0
471,20		  -1
471,61		  -1
472,01		  -2
472,41		  -3
472,81		  -4
473,21		  -4
473,61		  -4
474,01		  -4
474,41		  -3
474,82		  -2
475,22		  -1
475,62		  -1
476,02		  -1
476,42		  0
476,82		  0
477,22		  1
477,63		  1
478,03		  1
478,43		  1
478,83		  0
479,23		  0
479,63		  -1
480,03		  -2
480,44		  -2
480,84		  -3
481,24		  -3
481,64		  -3
482,04		  -3
482,44		  -4
482,84		  -4
483,24		  -3
483,65		  -3
484,05		  -2
484,45		  0
484,85		  1
485,25		  1
485,65		  2
486,05		  2
486,46		  2
486,86		  2
487,26		  2
487,66		  1
488,06		  1
488,46		  -1
488,86		  -2
489,27		  -2
489,67		  -3
490,07		  -3
490,47		  -3
490,87		  -3
491,27		  -3
491,67		  -2
492,07		  -1
492,48		  0
492,88		  0
493,28		  1
493,68		  2
494,08		  2
494,48		  2
494,88		  2
495,29		  2
495,69		  2
496,09		  1
496,49		  0
496,89		  0
497,29		  -1
497,69		  -2
498,10		  -3
498,50		  -3
498,90		  -3
499,30		  -3
499,70		  -3
500,10		  -2
500,50		  -1
500,90		  -1
501,31		  0
501,71		  1
502,11		  2
502,51		  3
502,91		  4
503,31		  5
503,71		  5
504,12		  4
504,52		  4
504,92		  4
505,32		  2
505,72		  2
506,12		  1
506,52		  0
506,93		  0
507,33		  -1
507,73		  -1
508,13		  -1
508,53		  -1
508,93		  0
509,33		  0
509,73		  0
510,14		  1
510,54		  1
510,94		  1
511,34		  2
511,74		  2
512,14		  1
512,54		  1
512,95		  0
513,35		  0
513,75		  -1
514,15		  -1
514,55		  -2
514,95		  -2
515,35		  -3
515,76		  -3
516,16		  -3
516,56		  -3
516,96		  -3
517,36		  -2
517,76		  -1
518,16		  0
518,56		  0
518,97		  0
519,37		  1
519,77		  1
520,17		  0
520,57		  0
520,97		  0
521,37		  -1
521,78		  -2
522,18		  -3
522,58		  -4
522,98		  -5
523,38		  -6
523,78		  -6
524,18		  -6
524,59		  -6
524,99		  -7
525,39		  -6
525,79		  -6
526,19		  -5
526,59		  -4
526,99		  -3
527,39		  -2
527,80		  -1
528,20		  -1
528,60		  -1
529,00		  0
529,40		  0
529,80		  -1
530,20		  -1
530,61		  -1
531,01		  -1
531,41		  -2
531,81		  -3
532,21		  -3
532,61		  -3
533,01		  -3
533,42		  -2
533,82		  -2
534,22		  -1
534,62		  -1
535,02		  -1
535,42		  0
535,82		  1
536,23		  1
536,63		  1
537,03		  2
537,43		  1
537,83		  1
538,23		  0
538,63		  0
539,03		  -1
539,44		  -1
539,84		  -1
540,24		  -1
540,64		  -1
541,04		  -1
541,44		  -1
541,84		  0
542,25		  1
542,65		  1
543,05		  2
543,45		  3
543,85		  4
544,25		  3
544,65		  3
545,06		  4
545,46		  3
545,86		  3
546,26		  2
546,66		  2
547,06		  1
547,46		  -1
547,86		  -1
548,27		  -2
548,67		  -2
549,07		  -2
549,47		  -2
549,87		  -1
550,27		  0
550,67		  0
551,08		  0
551,48		  2
551,88		  2
552,28		  3
552,68		  3
553,08		  4
553,48		  4
553,89		  3
554,29		  3
554,69		  3
555,09		  2
555,49		  1
555,89		  0
556,29		  -1
556,69		  -2
557,10		  -2
557,50		  -3
557,90		  -2
558,30		  -2
558,70		  -2
559,10		  -1
559,50		  0
559,91		  0
560,31		  1
560,71		  1
561,11		  2
561,51		  2
561,91		  2
562,31		  2
562,72		  2
563,12		  2
563,52		  1
563,92		  0
564,32		  -1
564,72		  -1
565,12		  -2
565,52		  -2
565,93		  -2
566,33		  -2
566,73		  -2
567,13		  -2
567,53		  -1
567,93		  0
568,33		  0
568,74		  1
569,14		  1
569,54		  2
569,94		  1
570,34		  1
570,74		  2
571,14		  1
571,55		  1
571,95		  1
572,35		  1
572,75		  0
573,15		  -1
573,55		  -2
573,95		  -2
574,35		  -2
574,76		  -2
575,16		  -1
575,56		  0
575,96		  0
576,36		  1
576,76		  2
577,16		  2
577,57		  3
577,97		  3
578,37		  4
578,77		  4
579,17		  4
579,57		  3
579,97		  3
580,38		  3
580,78		  2
581,18		  1
581,58		  1
581,98		  1
582,38		  1
582,78		  0
583,18		  0
583,59		  1
583,99		  1
584,39		  1
584,79		  2
585,19		  3
585,59		  3
585,99		  3
586,40		  3
586,80		  3
587,20		  3
587,60		  2
588,00		  2
588,40		  2
588,80		  1
589,21		  0
589,61		  -1
590,01		  -1
590,41		  -1
590,81		  -2
591,21		  -2
591,61		  -2
592,01		  -1
592,42		  -2
592,82		  -1
593,22		  -1
593,62		  0
594,02		  0
594,42		  0
594,82		  1
595,23		  1
595,63		  0
596,03		  -1
596,43		  -1
596,83		  -2
597,23		  -2
597,63		  -3
598,04		  -3
598,44		  -4
598,84		  -4
599,24		  -5
599,64		  -5
600,04		  -4
600,44		  -4
600,84		  -4
601,25		  -3
601,65		  -2
602,05		  -2
602,45		  -2
602,85		  -1
603,25		  -1
603,65		  -1
604,06		  -1
604,46		  -1
604,86		  -2
605,26		  -2
605,66		  -3
606,06		  -3
606,46		  -3
606,87		  -4
607,27		  -4
607,67		  -3
608,07		  -3
608,47		  -3
608,87		  -2
609,27		  -1
609,67		  0
610,08		  0
610,48		  1
610,88		  2
611,28		  3
611,68		  2
612,08		  2
612,48		  2
612,89		  2
613,29		  1
613,69		  0
614,09		  -1
614,49		  -2
614,89		  -3
615,29		  -4
615,70		  -4
616,10		  -4
616,50		  -4
616,90		  -3
617,30		  -2
617,70		  -1
618,10		  -1
618,51		  0
618,91		  0
619,31		  1
619,71		  2
620,11		  2
620,51		  2
620,91		  2
621,31		  1
621,72		  0
622,12		  -1
622,52		  -2
622,92		  -2
623,32		  -3
623,72		  -4
624,12		  -4
624,53		  -4
624,93		  -4
625,33		  -4
625,73		  -3
626,13		  -3
626,53		  -2
626,93		  -2
627,34		  -1
627,74		  -1
628,14		  -1
628,54		  -1
628,94		  -1
629,34		  0
629,74		  -1
630,14		  -1
630,55		  -2
630,95		  -3
631,35		  -3
631,75		  -4
632,15		  -4
632,55		  -4
632,95		  -4
633,36		  -3
633,76		  -3
634,16		  -2
634,56		  -1
634,96		  -1
635,36		  0
635,76		  1
636,17		  2
636,57		  2
636,97		  2
637,37		  2
637,77		  1
638,17		  1
638,57		  1
638,97		  1
639,38		  0
639,78		  -1
640,18		  -1
640,58		  -2
640,98		  -2
641,38		  -2
641,78		  -1
642,19		  -1
642,59		  0
642,99		  0
643,39		  1
643,79		  1
644,19		  2
644,59		  2
645,00		  3
645,40		  3
645,80		  3
646,20		  3
646,60		  2
647,00		  2
647,40		  1
647,80		  0
648,21		  0
648,61		  0
649,01		  -1
649,41		  -2
649,81		  -2
650,21		  -2
650,61		  -2
651,02		  -2
651,42		  -1
651,82		  -1
652,22		  0
652,62		  0
653,02		  -1
653,42		  -1
653,83		  -1
654,23		  -1
654,63		  -1
655,03		  -1
655,43		  -2
655,83		  -3
656,23		  -3
656,63		  -3
657,04		  -3
657,44		  -3
657,84		  -3
658,24		  -3
658,64		  -2
659,04		  -2
659,44		  -1
659,85		  -1
660,25		  0
660,65		  0
661,05		  1
661,45		  1
661,85		  2
662,25		  1
662,66		  1
663,06		  0
663,46		  0
663,86		  -1
664,26		  -2
664,66		  -2
665,06		  -3
665,46		  -3
665,87		  -3
666,27		  -3
666,67		  -3
667,07		  -2
667,47		  -1
667,87		  0
668,27		  1
668,68		  2
669,08		  2
669,48		  3
669,88		  3
670,28		  4
670,68		  3
671,08		  3
671,49		  3
671,89		  2
672,29		  1
672,69		  0
673,09		  -1
673,49		  -2
673,89		  -3
674,29		  -3
674,70		  -4
675,10		  -4
675,50		  -4
675,90		  -4
676,30		  -4
676,70		  -3
677,10		  -2
677,51		  -1
677,91		  -1
678,31		  -1
678,71		  -1
679,11		  -1
679,51		  -2
679,91		  -2
680,32		  -3
680,72		  -3
681,12		  -4
681,52		  -5
681,92		  -6
682,32		  -6
682,72		  -6
683,12		  -6
683,53		  -6
683,93		  -5
684,33		  -4
684,73		  -3
685,13		  -3
685,53		  -2
685,93		  -1
686,34		  -1
686,74		  0
687,14		  0
687,54		  -1
687,94		  -1
688,34		  -2
688,74		  -3
689,15		  -4
689,55		  -5
689,95		  -6
690,35		  -6
690,75		  -7
691,15		  -7
691,55		  -7
691,96		  -7
692,36		  -6
692,76		  -5
693,16		  -4
693,56		  -3
693,96		  -1
694,36		  0
694,76		  1
695,17		  1
695,57		  2
695,97		  3
696,37		  3
696,77		  3
697,17		  3
697,57		  2
697,98		  1
698,38		  0
698,78		  0
699,18		  -1
699,58		  -1
699,98		  -1
700,38		  -1
700,79		  -1
701,19		  -1
701,59		  -1
701,99		  0
702,39		  0
702,79		  1
703,19		  1
703,59		  1
704,00		  1
704,40		  1
704,80		  1
705,20		  0
705,60		  0
706,00		  -1
706,40		  -1
706,81		  -1
707,21		  -2
707,61		  -2
708,01		  -2
708,41		  -2
708,81		  -2
709,21		  -1
709,62		  0
710,02		  0
710,42		  0
710,82		  1
711,22		  1
711,62		  2
712,02		  2
712,42		  2
712,83		  2
713,23		  2
713,63		  1
714,03		  1
714,43		  0
714,83		  0
715,23		  -1
715,64		  -1
716,04		  -1
716,44		  -1
716,84		  -1
717,24		  -1
717,64		  -1
718,04		  0
718,45		  0
718,85		  1
719,25		  2
719,65		  2
720,05		  2
720,45		  2
720,85		  2
721,25		  2
721,66		  2
722,06		  2
722,46		  2
722,86		  1
723,26		  1
723,66		  0
724,06		  0
724,47		  0
724,87		  0
725,27		  1
725,67		  1
726,07		  2
726,47		  1
726,87		  2
727,28		  2
727,68		  2
728,08		  2
728,48		  3
728,88		  3
729,28		  2
729,68		  2
730,08		  1
730,49		  0
730,89		  0
731,29		  -1
731,69		  -2
732,09		  -2
732,49		  -2
732,89		  -3
733,30		  -3
733,70		  -2
734,10		  -2
734,50		  -1
734,90		  0
735,30		  0
735,70		  1
736,11		  1
736,51		  1
736,91		  0
737,31		  0
737,71		  -1
738,11		  -1
738,51		  -2
738,91		  -3
739,32		  -4
739,72		  -5
740,12		  -5
740,52		  -6
740,92		  -6
741,32		  -6
741,72		  -5
742,13		  -4
742,53		  -4
742,93		  -3
743,33		  -2
743,73		  -1
744,13		  0
744,53		  1
744,94		  2
745,34		  2
745,74		  2
746,14		  1
746,54		  1
746,94		  0
747,34		  -1
747,74		  -2
748,15		  -2
748,55		  -3
748,95		  -4
749,35		  -5
749,75		  -4
750,15		  -4
750,55		  -4
750,96		  -3
751,36		  -2
751,76		  -1
752,16		  -1
752,56		  0
752,96		  1
753,36		  2
753,77		  2
754,17		  2
754,57		  2
754,97		  1
755,37		  0
755,77		  -1
756,17		  -1
756,57		  -2
756,98		  -2
757,38		  -3
757,78		  -3
758,18		  -2
758,58		  -2
758,98		  -2
759,38		  -1
759,79		  0
760,19		  1
760,59		  2
760,99		  2
761,39		  3
761,79		  4
762,19		  4
762,60		  3
763,00		  3
763,40		  2
763,80		  1
764,20		  0
764,60		  -2
765,00		  -3
765,41		  -4
765,81		  -5
766,21		  -6
766,61		  -6
767,01		  -5
767,41		  -5
767,81		  -4
768,21		  -3
768,62		  -1
769,02		  0
769,42		  1
769,82		  2
770,22		  2
770,62		  3
771,02		  3
771,43		  3
771,83		  2
772,23		  1
772,63		  0
773,03		  0
773,43		  -1
773,83		  -2
774,24		  -3
774,64		  -4
775,04		  -4
775,44		  -3
775,84		  -3
776,24		  -2
776,64		  -1
777,04		  0
777,45		  1
777,85		  1
778,25		  2
778,65		  3
779,05		  3
779,45		  4
779,85		  4
780,26		  3
780,66		  3
781,06		  2
781,46		  1
781,86		  0
782,26		  -1
782,66		  -1
783,07		  -2
783,47		  -2
783,87		  -2
784,27		  -1
784,67		  0
785,07		  0
785,47		  1
785,87		  2
786,28		  3
786,68		  3
787,08		  3
787,48		  3
787,88		  3
788,28		  3
788,68		  2
789,09		  2
789,49		  1
789,89		  0
790,29		  -1
790,69		  -1
791,09		  -1
791,49		  -2
791,90		  -3
792,30		  -2
792,70		  -2
793,10		  -2
793,50		  -2
793,90		  -1
794,30		  1
794,70		  1
795,11		  1
795,51		  1
795,91		  2
796,31		  1
796,71		  1
797,11		  0
797,51		  0
797,92		  -1
798,32		  -2
798,72		  -3
799,12		  -4
799,52		  -4
799,92		  -5
800,32		  -5
800,73		  -4
801,13		  -4
801,53		  -4
801,93		  -3
802,33		  -2
802,73		  -2
