Control Word: 0x9
State Word: 0x6
Thershold Trigger: 100 LSB
Local  Dosa: -788 LSB
Global Dosa: 818855 LSB
Avergage Amplitude meaurements :-80
Quanity Measure Amplitudes: 2461
Counter Events Trigger: 10
Time Exposition: 1000 mS
---------------------------------------------------------------------------
RAW Amplitudes data
---------------------------------------------------------------------------
Time(mS)	 Value(LSB)
0,41		  25
0,81		  -54
1,22		  -199
1,63		  -11
2,03		  -10
2,44		  -187
2,84		  -67
3,25		  12
3,66		  -123
4,06		  -151
4,47		  10
4,88		  -56
5,28		  -209
5,69		  -13
6,10		  -20
6,50		  -190
6,91		  -75
7,31		  -8
7,72		  -136
8,13		  -153
8,53		  0
8,94		  -89
9,35		  -210
9,75		  -21
10,16		  -41
10,56		  -212
10,97		  -67
11,38		  3
11,78		  -150
12,19		  -138
12,60		  10
13,00		  -74
13,41		  -203
13,82		  -6
14,22		  -19
14,63		  -199
15,03		  -50
15,44		  0
15,85		  -137
16,25		  -118
16,66		  16
17,07		  -71
17,47		  -184
17,88		  16
18,29		  -25
18,69		  -183
19,10		  -33
19,50		  17
19,91		  -144
20,32		  -106
20,72		  36
21,13		  -76
21,54		  -182
21,94		  5
22,35		  -21
22,75		  -198
23,16		  -40
23,57		  3
23,97		  -151
24,38		  -98
24,79		  5
25,19		  -90
25,60		  -179
26,01		  6
26,41		  -56
26,82		  -217
27,22		  -36
27,63		  -14
28,04		  -179
28,44		  -113
28,85		  10
29,26		  -109
29,66		  -191
30,07		  -2
30,48		  -54
30,88		  -215
31,29		  -45
31,69		  -10
32,10		  -180
32,51		  -90
32,91		  1
33,32		  -107
33,73		  -161
34,13		  10
34,54		  -54
34,95		  -214
35,35		  -13
35,76		  -11
36,16		  -177
36,57		  -76
36,98		  24
37,38		  -99
37,79		  -153
38,20		  28
38,60		  -42
39,01		  -189
39,41		  -14
39,82		  1
40,23		  -167
40,63		  -60
41,04		  15
41,45		  -113
41,85		  -132
42,26		  15
42,67		  -65
43,07		  -205
43,48		  -5
43,88		  -17
44,29		  -193
44,70		  -62
45,10		  11
45,51		  -121
45,92		  -151
46,32		  13
46,73		  -65
47,14		  -208
47,54		  -17
47,95		  -30
48,35		  -197
48,76		  -70
49,17		  -7
49,57		  -142
49,98		  -138
50,39		  3
50,79		  -90
51,20		  -205
51,61		  -15
52,01		  -31
52,42		  -208
52,82		  -55
53,23		  8
53,64		  -139
54,04		  -130
54,45		  14
54,86		  -66
55,26		  -201
55,67		  -4
56,07		  -25
56,48		  -188
56,89		  -45
57,29		  7
57,70		  -129
58,11		  -109
58,51		  23
58,92		  -74
59,33		  -178
59,73		  11
60,14		  -25
60,54		  -195
60,95		  -31
61,36		  17
61,76		  -147
62,17		  -105
62,58		  21
62,98		  -77
63,39		  -187
63,80		  -1
64,20		  -27
64,61		  -202
65,01		  -38
65,42		  -7
65,83		  -151
66,23		  -105
66,64		  3
67,05		  -104
67,45		  -189
67,86		  0
68,26		  -62
68,67		  -220
69,08		  -44
69,48		  -9
69,89		  -184
70,30		  -112
70,70		  8
71,11		  -107
71,52		  -183
71,92		  -4
72,33		  -40
72,73		  -213
73,14		  -34
73,55		  -5
73,95		  -166
74,36		  -85
74,77		  4
75,17		  -102
75,58		  -169
75,99		  11
76,39		  -57
76,80		  -204
77,20		  -10
77,61		  -3
78,02		  -166
78,42		  -74
78,83		  34
79,24		  -95
79,64		  -150
80,05		  23
80,46		  -41
80,86		  -189
81,27		  -17
81,67		  -1
82,08		  -172
82,49		  -63
82,89		  8
83,30		  -114
83,71		  -144
84,11		  12
84,52		  -64
84,92		  -211
85,33		  -2
85,74		  -20
86,14		  -195
86,55		  -73
86,96		  4
87,36		  -133
87,77		  -155
88,18		  7
88,58		  -76
88,99		  -213
89,39		  -28
89,80		  -28
90,21		  -203
90,61		  -71
91,02		  -9
91,43		  -144
91,83		  -137
92,24		  0
92,65		  -81
93,05		  -206
93,46		  -3
93,86		  -25
94,27		  -202
94,68		  -49
95,08		  5
95,49		  -134
95,90		  -135
96,30		  21
96,71		  -67
97,11		  -189
97,52		  3
97,93		  -19
98,33		  -181
98,74		  -41
99,15		  14
99,55		  -134
99,96		  -100
100,37		  24
100,77		  -77
101,18		  -175
101,58		  9
101,99		  -26
102,40		  -208
102,80		  -33
103,21		  6
103,62		  -152
104,02		  -108
104,43		  13
104,84		  -82
105,24		  -182
105,65		  4
106,05		  -36
106,46		  -204
106,87		  -42
107,27		  -14
107,68		  -163
108,09		  -110
108,49		  5
108,90		  -116
109,31		  -186
109,71		  -7
110,12		  -56
110,52		  -224
110,93		  -42
111,34		  -10
111,74		  -178
112,15		  -102
112,56		  11
112,96		  -102
113,37		  -174
113,77		  3
114,18		  -41
114,59		  -203
114,99		  -24
115,40		  -15
115,81		  -168
116,21		  -83
116,62		  11
117,03		  -106
117,43		  -152
117,84		  22
118,24		  -53
118,65		  -197
119,06		  -8
119,46		  4
119,87		  -171
120,28		  -68
120,68		  26
121,09		  -103
121,50		  -140
121,90		  16
122,31		  -44
122,71		  -200
123,12		  -13
123,53		  -18
123,93		  -184
124,34		  -65
124,75		  -1
125,15		  -123
125,56		  -146
125,97		  15
126,37		  -72
126,78		  -213
127,18		  -13
127,59		  -27
128,00		  -203
128,40		  -76
128,81		  4
129,22		  -143
129,62		  -151
130,03		  1
130,43		  -75
130,84		  -209
131,25		  -28
131,65		  -28
132,06		  -206
132,47		  -58
132,87		  -10
133,28		  -140
133,69		  -127
134,09		  12
134,50		  -75
134,90		  -202
135,31		  1
135,72		  -29
136,12		  -205
136,53		  -52
136,94		  16
137,34		  -130
137,75		  -121
138,16		  31
138,56		  -65
138,97		  -176
139,37		  6
139,78		  -13
140,19		  -185
140,59		  -35
141,00		  12
141,41		  -139
141,81		  -100
142,22		  15
142,62		  -80
143,03		  -180
143,44		  10
143,84		  -36
144,25		  -211
144,66		  -32
145,06		  1
145,47		  -152
145,88		  -115
146,28		  19
146,69		  -90
147,09		  -185
147,50		  -5
147,91		  -47
148,31		  -210
148,72		  -48
149,13		  -19
149,53		  -174
149,94		  -104
150,35		  0
150,75		  -117
151,16		  -186
151,56		  -5
151,97		  -52
152,38		  -224
152,78		  -35
153,19		  -11
153,60		  -175
154,00		  -98
154,41		  15
154,82		  -95
155,22		  -173
155,63		  5
156,03		  -45
156,44		  -204
156,85		  -24
157,25		  -7
157,66		  -159
158,07		  -73
158,47		  22
158,88		  -101
159,28		  -144
159,69		  23
160,10		  -45
160,50		  -200
160,91		  -6
161,32		  7
161,72		  -175
162,13		  -72
162,54		  21
162,94		  -102
163,35		  -153
163,75		  10
164,16		  -50
164,57		  -205
164,97		  -16
165,38		  -21
165,79		  -179
166,19		  -69
166,60		  5
167,01		  -126
167,41		  -157
167,82		  9
168,22		  -79
168,63		  -219
169,04		  -26
169,44		  -26
169,85		  -208
170,26		  -83
170,66		  0
171,07		  -136
171,48		  -155
171,88		  2
172,29		  -67
172,69		  -210
173,10		  -23
173,51		  -24
173,91		  -191
174,32		  -56
174,73		  -2
175,13		  -128
175,54		  -137
175,94		  15
176,35		  -78
176,76		  -203
177,16		  5
177,57		  -17
177,98		  -191
178,38		  -47
178,79		  25
179,20		  -126
179,60		  -119
180,01		  24
180,41		  -60
180,82		  -178
181,23		  3
181,63		  -14
182,04		  -191
182,45		  -35
182,85		  0
183,26		  -142
183,67		  -109
184,07		  17
184,48		  -87
184,88		  -195
185,29		  8
185,70		  -37
186,10		  -206
186,51		  -40
186,92		  1
187,32		  -156
187,73		  -125
188,13		  13
188,54		  -96
188,95		  -195
189,35		  -18
189,76		  -48
190,17		  -217
190,57		  -50
190,98		  -11
191,39		  -174
191,79		  -107
192,20		  -5
192,60		  -103
193,01		  -183
193,42		  2
193,82		  -49
194,23		  -217
194,64		  -26
195,04		  -4
195,45		  -163
195,86		  -97
196,26		  17
196,67		  -96
197,07		  -169
197,48		  13
197,89		  -37
198,29		  -192
198,70		  -20
199,11		  3
199,51		  -155
199,92		  -66
200,33		  20
200,73		  -98
201,14		  -146
201,54		  23
201,95		  -45
202,36		  -206
202,76		  -7
203,17		  -4
203,58		  -180
203,98		  -78
204,39		  12
204,79		  -109
205,20		  -165
205,61		  14
206,01		  -51
206,42		  -202
206,83		  -20
207,23		  -19
207,64		  -185
208,05		  -80
208,45		  -2
208,86		  -130
209,26		  -155
209,67		  -3
210,08		  -80
210,48		  -218
210,89		  -24
211,30		  -29
211,70		  -209
212,11		  -73
212,52		  8
212,92		  -132
213,33		  -149
213,73		  8
214,14		  -60
214,55		  -204
214,95		  -12
215,36		  -22
215,77		  -186
216,17		  -57
216,58		  0
216,98		  -129
217,39		  -123
217,80		  21
218,20		  -75
218,61		  -187
219,02		  5
219,42		  -16
219,83		  -192
220,24		  -40
220,64		  22
221,05		  -133
221,45		  -112
221,86		  27
222,27		  -68
222,67		  -188
223,08		  1
223,49		  -21
223,89		  -197
224,30		  -38
224,71		  -6
225,11		  -144
225,52		  -110
225,92		  14
226,33		  -89
226,74		  -190
227,14		  2
227,55		  -46
227,96		  -215
228,36		  -47
228,77		  -2
229,18		  -170
229,58		  -120
229,99		  10
230,39		  -99
230,80		  -191
231,21		  -8
231,61		  -44
232,02		  -217
232,43		  -43
232,83		  -14
233,24		  -168
233,64		  -94
234,05		  2
234,46		  -102
234,86		  -176
235,27		  12
235,68		  -54
236,08		  -210
236,49		  -24
236,90		  -6
237,30		  -169
237,71		  -86
238,11		  29
238,52		  -96
238,93		  -153
239,33		  22
239,74		  -34
240,15		  -191
240,55		  -14
240,96		  4
241,37		  -167
241,77		  -65
242,18		  11
242,58		  -109
242,99		  -146
243,40		  18
243,80		  -61
244,21		  -213
244,62		  -8
245,02		  -16
245,43		  -191
245,84		  -74
246,24		  16
246,65		  -118
247,05		  -156
247,46		  12
247,87		  -68
248,27		  -209
248,68		  -27
249,09		  -28
249,49		  -200
249,90		  -75
250,30		  -8
250,71		  -142
251,12		  -142
251,52		  -3
251,93		  -87
252,34		  -214
252,74		  -9
253,15		  -33
253,56		  -207
253,96		  -57
254,37		  4
254,77		  -132
255,18		  -136
255,59		  21
255,99		  -69
256,40		  -194
256,81		  -5
257,21		  -23
257,62		  -185
258,03		  -44
258,43		  9
258,84		  -129
259,24		  -100
259,65		  24
260,06		  -75
260,46		  -174
260,87		  14
261,28		  -20
261,68		  -199
262,09		  -26
262,49		  13
262,90		  -144
263,31		  -105
263,71		  21
264,12		  -77
264,53		  -187
264,93		  4
265,34		  -35
265,75		  -203
266,15		  -41
266,56		  -5
266,96		  -155
267,37		  -105
267,78		  4
268,18		  -106
268,59		  -183
269,00		  -3
269,40		  -61
269,81		  -223
270,22		  -44
270,62		  -13
271,03		  -186
271,43		  -105
271,84		  -1
272,25		  -106
272,65		  -184
273,06		  -3
273,47		  -47
273,87		  -213
274,28		  -32
274,69		  -11
275,09		  -164
275,50		  -84
275,90		  5
276,31		  -107
276,72		  -161
277,12		  12
277,53		  -58
277,94		  -201
278,34		  -9
278,75		  2
279,15		  -174
279,56		  -69
279,97		  32
280,37		  -101
280,78		  -145
281,19		  22
281,59		  -37
282,00		  -193
282,41		  -11
282,81		  -2
283,22		  -176
283,62		  -62
284,03		  9
284,44		  -115
284,84		  -146
285,25		  12
285,66		  -68
286,06		  -209
286,47		  -7
286,88		  -21
287,28		  -192
287,69		  -72
288,09		  8
288,50		  -138
288,91		  -152
289,31		  7
289,72		  -74
290,13		  -213
290,53		  -25
290,94		  -27
291,34		  -205
291,75		  -72
292,16		  -8
292,56		  -140
292,97		  -138
293,38		  -1
293,78		  -81
294,19		  -205
294,60		  -1
295,00		  -33
295,41		  -202
295,81		  -50
296,22		  10
296,63		  -141
297,03		  -129
297,44		  23
297,85		  -73
298,25		  -187
298,66		  4
299,07		  -19
299,47		  -187
299,88		  -38
300,28		  16
300,69		  -137
301,10		  -98
301,50		  16
301,91		  -73
302,32		  -173
302,72		  10
303,13		  -32
303,54		  -204
303,94		  -25
304,35		  2
304,75		  -156
305,16		  -109
305,57		  18
305,97		  -90
306,38		  -187
306,79		  9
307,19		  -36
307,60		  -206
308,00		  -47
308,41		  -8
308,82		  -167
309,22		  -109
309,63		  2
310,04		  -113
310,44		  -180
310,85		  -10
311,26		  -62
311,66		  -219
312,07		  -34
312,47		  -17
312,88		  -183
313,29		  -89
313,69		  9
314,10		  -109
314,51		  -175
314,91		  12
315,32		  -46
315,73		  -212
316,13		  -22
316,54		  -10
316,94		  -170
317,35		  -86
317,76		  14
318,16		  -104
318,57		  -144
318,98		  16
319,38		  -52
319,79		  -191
320,20		  -3
320,60		  -6
321,01		  -177
321,41		  -54
321,82		  23
322,23		  -113
322,63		  -137
323,04		  22
323,45		  -50
323,85		  -208
324,26		  -4
324,66		  -14
325,07		  -186
325,48		  -72
325,88		  5
326,29		  -121
326,70		  -138
327,10		  7
327,51		  -70
327,92		  -204
328,32		  -15
328,73		  -36
329,13		  -204
329,54		  -68
329,95		  0
330,35		  -155
330,76		  -140
331,17		  6
331,57		  -83
331,98		  -213
332,39		  -18
332,79		  -28
333,20		  -211
333,60		  -64
334,01		  -2
334,42		  -139
334,82		  -128
335,23		  4
335,64		  -75
336,04		  -194
336,45		  -2
336,85		  -38
337,26		  -197
337,67		  -40
338,07		  6
338,48		  -141
338,89		  -106
339,29		  33
339,70		  -74
340,11		  -177
340,51		  16
340,92		  -13
341,32		  -195
341,73		  -34
342,14		  18
342,54		  -138
342,95		  -97
343,36		  16
343,76		  -80
344,17		  -181
344,58		  2
344,98		  -39
345,39		  -205
345,79		  -28
346,20		  -11
346,61		  -159
347,01		  -102
347,42		  20
347,83		  -101
348,23		  -187
348,64		  1
349,05		  -47
349,45		  -219
349,86		  -46
350,26		  -6
350,67		  -176
351,08		  -113
351,48		  -1
351,89		  -109
352,30		  -181
352,70		  -12
353,11		  -50
353,51		  -217
353,92		  -29
354,33		  -20
354,73		  -174
355,14		  -86
355,55		  13
355,95		  -107
356,36		  -168
356,77		  18
357,17		  -49
357,58		  -211
357,98		  -16
358,39		  3
358,80		  -164
359,20		  -77
359,61		  27
360,02		  -100
360,42		  -144
360,83		  15
361,24		  -47
361,64		  -193
362,05		  -8
362,45		  -7
362,86		  -177
363,27		  -56
363,67		  13
364,08		  -119
364,49		  -143
364,89		  21
365,30		  -60
365,71		  -212
366,11		  -3
366,52		  -15
366,92		  -190
367,33		  -72
367,74		  11
368,14		  -127
368,55		  -154
368,96		  1
369,36		  -79
369,77		  -205
370,17		  -27
370,58		  -37
370,99		  -202
371,39		  -68
371,80		  -8
372,21		  -151
372,61		  -134
373,02		  8
373,43		  -82
373,83		  -205
374,24		  -4
374,64		  -25
375,05		  -204
375,46		  -49
375,86		  3
376,27		  -135
376,68		  -127
377,08		  15
377,49		  -80
377,90		  -187
378,30		  2
378,71		  -30
379,11		  -190
379,52		  -30
379,93		  9
380,33		  -142
380,74		  -94
381,15		  28
381,55		  -80
381,96		  -173
382,36		  15
382,77		  -19
383,18		  -205
383,58		  -29
383,99		  5
384,40		  -155
384,80		  -105
385,21		  12
385,62		  -88
386,02		  -184
386,43		  1
386,83		  -43
387,24		  -204
387,65		  -34
388,05		  -14
388,46		  -165
388,87		  -103
389,27		  8
389,68		  -115
390,09		  -178
390,49		  -3
390,90		  -58
391,30		  -223
391,71		  -37
392,12		  -13
392,52		  -188
392,93		  -98
393,34		  2
393,74		  -110
394,15		  -173
394,56		  -2
394,96		  -54
395,37		  -208
395,77		  -19
396,18		  -20
396,59		  -174
396,99		  -76
397,40		  12
397,81		  -117
398,21		  -151
398,62		  26
399,02		  -53
399,43		  -202
399,84		  -3
400,24		  4
400,65		  -178
401,06		  -66
401,46		  25
401,87		  -109
402,28		  -134
402,68		  18
403,09		  -47
403,49		  -199
403,90		  -11
404,31		  -14
404,71		  -185
405,12		  -58
405,53		  4
405,93		  -124
406,34		  -141
406,75		  18
407,15		  -71
407,56		  -206
407,96		  -7
408,37		  -22
408,78		  -201
409,18		  -72
409,59		  3
410,00		  -143
410,40		  -148
410,81		  -4
411,21		  -80
411,62		  -207
412,03		  -26
412,43		  -38
412,84		  -212
413,25		  -57
413,65		  -13
414,06		  -147
414,47		  -124
414,87		  14
415,28		  -85
415,68		  -196
416,09		  10
416,50		  -28
416,90		  -202
417,31		  -47
417,72		  6
418,12		  -141
418,53		  -118
418,94		  25
419,34		  -78
419,75		  -176
420,15		  4
420,56		  -21
420,97		  -192
421,37		  -29
421,78		  10
422,19		  -146
422,59		  -86
423,00		  23
423,41		  -84
423,81		  -178
424,22		  16
424,62		  -32
425,03		  -210
425,44		  -31
425,84		  -3
426,25		  -162
426,66		  -110
427,06		  16
427,47		  -93
427,87		  -183
428,28		  -2
428,69		  -52
429,09		  -208
429,50		  -44
429,91		  -18
430,31		  -176
430,72		  -97
431,13		  -1
431,53		  -119
431,94		  -173
432,34		  -1
432,75		  -63
433,16		  -223
433,56		  -23
433,97		  -14
434,38		  -186
434,78		  -89
435,19		  6
435,60		  -107
436,00		  -169
436,41		  9
436,81		  -55
437,22		  -206
437,63		  -22
438,03		  -18
438,44		  -170
438,85		  -64
439,25		  16
439,66		  -112
440,07		  -131
440,47		  26
440,88		  -52
441,28		  -192
441,69		  1
442,10		  0
442,50		  -187
442,91		  -53
443,32		  19
443,72		  -114
444,13		  -141
444,53		  15
444,94		  -57
445,35		  -206
445,75		  -14
446,16		  -24
446,57		  -186
446,97		  -63
447,38		  1
447,79		  -128
448,19		  -131
448,60		  10
449,00		  -88
449,41		  -202
449,82		  -14
450,22		  -39
450,63		  -213
451,04		  -67
451,44		  -2
451,85		  -156
452,26		  -139
452,66		  1
453,07		  -85
453,47		  -211
453,88		  -17
454,29		  -32
454,69		  -207
455,10		  -53
455,51		  -4
455,91		  -139
456,32		  -118
456,72		  9
457,13		  -85
457,54		  -189
457,94		  6
458,35		  -37
458,76		  -198
459,16		  -33
459,57		  13
459,98		  -147
460,38		  -104
460,79		  31
461,19		  -77
461,60		  -175
462,01		  14
462,41		  -19
462,82		  -194
463,23		  -33
463,63		  9
464,04		  -148
464,45		  -89
464,85		  10
465,26		  -89
465,66		  -177
466,07		  8
466,48		  -49
466,88		  -209
467,29		  -25
467,70		  -8
468,10		  -170
468,51		  -100
468,92		  14
469,32		  -112
469,73		  -180
470,13		  -5
470,54		  -58
470,95		  -221
471,35		  -45
471,76		  -15
472,17		  -188
472,57		  -96
472,98		  -4
473,38		  -116
473,79		  -165
474,20		  0
474,60		  -59
475,01		  -214
475,42		  -15
475,82		  -20
476,23		  -183
476,64		  -72
477,04		  16
477,45		  -119
477,85		  -159
478,26		  19
478,67		  -54
479,07		  -203
479,48		  -10
479,89		  -2
480,29		  -172
480,70		  -65
481,11		  25
481,51		  -108
481,92		  -129
482,32		  18
482,73		  -49
483,14		  -187
483,54		  0
483,95		  -15
484,36		  -187
484,76		  -51
485,17		  8
485,57		  -132
485,98		  -139
486,39		  16
486,79		  -70
487,20		  -207
487,61		  -6
488,01		  -25
488,42		  -195
488,83		  -71
489,23		  0
489,64		  -140
490,04		  -140
490,45		  -2
490,86		  -89
491,26		  -201
491,67		  -19
492,08		  -44
492,48		  -208
492,89		  -51
493,30		  -11
493,70		  -157
494,11		  -124
494,51		  9
494,92		  -87
495,33		  -203
495,73		  2
496,14		  -29
496,55		  -209
496,95		  -41
497,36		  0
497,77		  -143
498,17		  -114
498,58		  19
498,98		  -78
499,39		  -169
499,80		  7
500,20		  -30
500,61		  -185
501,02		  -21
501,42		  8
501,83		  -150
502,23		  -87
502,64		  26
503,05		  -87
503,45		  -170
503,86		  12
504,27		  -29
504,67		  -211
505,08		  -24
505,49		  -4
505,89		  -163
506,30		  -98
506,70		  9
507,11		  -94
507,52		  -166
507,92		  4
508,33		  -54
508,74		  -207
509,14		  -28
509,55		  -24
509,96		  -181
510,36		  -93
510,77		  4
511,17		  -132
511,58		  -174
511,99		  -1
512,39		  -68
512,80		  -226
513,21		  -35
513,61		  -16
514,02		  -192
514,43		  -85
514,83		  5
515,24		  -113
515,64		  -156
516,05		  6
516,46		  -53
516,86		  -206
517,27		  -11
517,68		  -24
518,08		  -184
518,49		  -66
518,89		  17
519,30		  -120
519,71		  -141
520,11		  28
520,52		  -54
520,93		  -196
521,33		  -1
521,74		  1
522,15		  -183
522,55		  -55
522,96		  24
523,36		  -113
523,77		  -128
524,18		  16
524,58		  -57
524,99		  -192
525,40		  -4
525,80		  -24
526,21		  -193
526,62		  -47
527,02		  -1
527,43		  -136
527,83		  -127
528,24		  18
528,65		  -85
529,05		  -205
529,46		  -4
529,87		  -37
530,27		  -213
530,68		  -63
531,08		  -1
531,49		  -155
531,90		  -132
532,30		  2
532,71		  -91
533,12		  -195
533,52		  -17
533,93		  -38
534,34		  -215
534,74		  -43
535,15		  -13
535,55		  -160
535,96		  -104
536,37		  12
536,77		  -98
537,18		  -188
537,59		  14
537,99		  -41
538,40		  -213
538,81		  -26
539,21		  8
539,62		  -152
540,02		  -94
540,43		  31
540,84		  -88
541,24		  -160
541,65		  15
542,06		  -30
542,46		  -192
542,87		  -21
543,28		  2
543,68		  -166
544,09		  -73
544,49		  13
544,90		  -106
545,31		  -159
545,71		  13
546,12		  -55
546,53		  -216
546,93		  -11
547,34		  -10
547,74		  -180
548,15		  -84
548,56		  14
548,96		  -116
549,37		  -166
549,78		  4
550,18		  -65
550,59		  -214
551,00		  -38
551,40		  -25
551,81		  -195
552,21		  -83
552,62		  -6
553,03		  -137
553,43		  -151
553,84		  2
554,25		  -76
554,65		  -216
555,06		  -10
555,47		  -21
555,87		  -197
556,28		  -60
556,68		  11
557,09		  -123
557,50		  -145
557,90		  18
558,31		  -63
558,72		  -197
559,12		  -3
559,53		  -15
559,94		  -179
560,34		  -51
560,75		  12
561,15		  -125
561,56		  -112
561,97		  23
562,37		  -69
562,78		  -185
563,19		  8
563,59		  -18
564,00		  -198
564,40		  -38
564,81		  15
565,22		  -139
565,62		  -118
566,03		  15
566,44		  -75
566,84		  -197
567,25		  -1
567,66		  -30
568,06		  -199
568,47		  -46
568,87		  -9
569,28		  -151
569,69		  -118
570,09		  -1
570,50		  -103
570,91		  -193
571,31		  -10
571,72		  -56
572,13		  -219
572,53		  -49
572,94		  -5
573,34		  -177
573,75		  -114
574,16		  10
574,56		  -96
574,97		  -191
575,38		  -2
575,78		  -34
576,19		  -210
576,59		  -35
577,00		  -5
577,41		  -158
577,81		  -96
578,22		  9
578,63		  -97
579,03		  -168
579,44		  15
579,85		  -46
580,25		  -195
580,66		  -13
581,06		  4
581,47		  -162
581,88		  -74
582,28		  32
582,69		  -95
583,10		  -154
583,50		  25
583,91		  -34
584,32		  -201
584,72		  -21
585,13		  -1
585,53		  -172
585,94		  -77
586,35		  5
586,75		  -110
587,16		  -156
587,57		  7
587,97		  -62
588,38		  -209
588,79		  -11
589,19		  -28
589,60		  -194
590,00		  -80
590,41		  5
590,82		  -137
591,22		  -164
591,63		  5
592,04		  -74
592,44		  -219
592,85		  -29
593,25		  -21
593,66		  -202
594,07		  -81
594,47		  1
594,88		  -133
595,29		  -138
595,69		  -2
596,10		  -68
596,51		  -205
596,91		  -7
597,32		  -33
597,72		  -193
598,13		  -50
598,54		  9
598,94		  -135
599,35		  -126
599,76		  30
600,16		  -65
600,57		  -189
600,98		  8
601,38		  -9
601,79		  -185
602,19		  -47
602,60		  19
603,01		  -131
603,41		  -111
603,82		  17
604,23		  -72
604,63		  -179
605,04		  2
605,44		  -29
605,85		  -202
606,26		  -32
606,66		  -3
607,07		  -151
607,48		  -110
607,88		  22
608,29		  -87
608,70		  -190
609,10		  8
609,51		  -41
609,91		  -215
610,32		  -55
610,73		  -6
611,13		  -164
611,54		  -124
611,95		  2
612,35		  -106
612,76		  -187
613,17		  -16
613,57		  -53
613,98		  -218
614,38		  -38
614,79		  -14
615,20		  -171
615,60		  -94
616,01		  11
616,42		  -103
616,82		  -179
617,23		  12
617,64		  -42
618,04		  -214
618,45		  -26
618,85		  -4
619,26		  -163
619,67		  -94
620,07		  20
620,48		  -93
620,89		  -155
621,29		  15
621,70		  -38
622,10		  -188
622,51		  -13
622,92		  -1
623,32		  -165
623,73		  -62
624,14		  19
624,54		  -110
624,95		  -145
625,36		  19
625,76		  -52
626,17		  -211
626,57		  -11
626,98		  -12
627,39		  -186
627,79		  -75
628,20		  9
628,61		  -113
629,01		  -154
629,42		  4
629,83		  -69
630,23		  -209
630,64		  -26
631,04		  -37
631,45		  -196
631,86		  -77
632,26		  -5
632,67		  -145
633,08		  -146
633,48		  4
633,89		  -83
634,30		  -212
634,70		  -15
635,11		  -25
635,51		  -207
635,92		  -62
636,33		  6
636,73		  -131
637,14		  -140
637,55		  8
637,95		  -66
638,36		  -200
638,76		  -9
639,17		  -22
639,58		  -183
639,98		  -47
640,39		  8
640,80		  -123
641,20		  -112
641,61		  30
642,02		  -72
642,42		  -178
642,83		  13
643,23		  -20
643,64		  -192
644,05		  -36
644,45		  17
644,86		  -142
645,27		  -113
645,67		  19
646,08		  -73
646,49		  -192
646,89		  -6
647,30		  -28
647,70		  -202
648,11		  -41
648,52		  -4
648,92		  -148
649,33		  -110
649,74		  6
650,14		  -102
650,55		  -192
650,95		  3
651,36		  -57
651,77		  -219
652,17		  -45
652,58		  -8
652,99		  -180
653,39		  -116
653,80		  4
654,21		  -107
654,61		  -190
655,02		  -9
655,42		  -42
655,83		  -214
656,24		  -40
656,64		  -6
657,05		  -162
657,46		  -90
657,86		  3
658,27		  -98
658,68		  -170
659,08		  12
659,49		  -48
659,89		  -202
660,30		  -8
660,71		  2
661,11		  -164
661,52		  -75
661,93		  31
662,33		  -100
662,74		  -156
663,15		  22
663,55		  -38
663,96		  -195
664,36		  -18
664,77		  1
665,18		  -173
665,58		  -68
665,99		  9
666,40		  -112
666,80		  -146
667,21		  7
667,61		  -59
668,02		  -208
668,43		  -4
668,83		  -21
669,24		  -193
669,65		  -72
670,05		  6
670,46		  -133
670,87		  -162
671,27		  7
671,68		  -78
672,08		  -220
672,49		  -30
672,90		  -30
673,30		  -200
673,71		  -78
674,12		  -3
674,52		  -139
674,93		  -139
675,34		  -2
675,74		  -76
676,15		  -202
676,55		  -5
676,96		  -26
677,37		  -198
677,77		  -48
678,18		  5
678,59		  -140
678,99		  -132
679,40		  20
679,80		  -66
680,21		  -197
680,62		  8
681,02		  -18
681,43		  -182
681,84		  -46
682,24		  16
682,65		  -128
683,06		  -104
683,46		  23
683,87		  -70
684,27		  -172
684,68		  7
685,09		  -29
685,49		  -199
685,90		  -32
686,31		  0
686,71		  -157
687,12		  -110
687,53		  14
687,93		  -87
688,34		  -197
688,74		  5
689,15		  -35
689,56		  -211
689,96		  -47
690,37		  -7
690,78		  -157
691,18		  -120
691,59		  1
692,00		  -103
692,40		  -188
692,81		  -9
693,21		  -56
693,62		  -216
694,03		  -46
694,43		  -14
694,84		  -176
695,25		  -103
695,65		  10
696,06		  -107
696,46		  -177
696,87		  9
697,28		  -40
697,68		  -216
698,09		  -26
698,50		  -5
698,90		  -164
699,31		  -93
699,72		  16
700,12		  -90
700,53		  -155
700,93		  17
701,34		  -42
701,75		  -188
702,15		  -8
702,56		  -3
702,97		  -161
703,37		  -65
703,78		  25
704,19		  -110
704,59		  -147
705,00		  19
705,40		  -48
705,81		  -208
706,22		  -13
706,62		  -5
707,03		  -186
707,44		  -75
707,84		  11
708,25		  -110
708,66		  -150
709,06		  10
709,47		  -59
709,87		  -209
710,28		  -19
710,69		  -32
711,09		  -195
711,50		  -80
711,91		  -9
712,31		  -142
712,72		  -154
713,12		  3
713,53		  -85
713,94		  -217
714,34		  -22
714,75		  -24
715,16		  -207
715,56		  -68
715,97		  10
716,38		  -132
716,78		  -137
717,19		  9
717,59		  -64
718,00		  -200
718,41		  -13
718,81		  -26
719,22		  -196
719,63		  -49
720,03		  2
720,44		  -126
720,85		  -117
721,25		  24
721,66		  -72
722,06		  -188
722,47		  15
722,88		  -20
723,28		  -190
723,69		  -37
724,10		  26
724,50		  -134
724,91		  -115
725,31		  24
725,72		  -74
726,13		  -182
726,53		  -1
726,94		  -28
727,35		  -203
727,75		  -41
728,16		  -9
728,57		  -154
728,97		  -105
729,38		  8
729,78		  -97
730,19		  -192
730,60		  4
731,00		  -52
731,41		  -223
731,82		  -44
732,22		  -6
732,63		  -175
733,04		  -118
733,44		  9
733,85		  -106
734,25		  -192
734,66		  -8
735,07		  -50
735,47		  -214
735,88		  -42
736,29		  -11
736,69		  -173
737,10		  -87
737,51		  4
737,91		  -104
738,32		  -165
738,72		  10
739,13		  -50
739,54		  -211
739,94		  -12
740,35		  -2
740,76		  -167
741,16		  -77
741,57		  29
741,97		  -95
742,38		  -156
742,79		  25
743,19		  -42
743,60		  -192
744,01		  -15
744,41		  0
744,82		  -169
745,23		  -70
745,63		  12
746,04		  -111
746,44		  -147
746,85		  10
747,26		  -62
747,66		  -210
748,07		  -12
748,48		  -15
748,88		  -192
749,29		  -64
749,70		  12
750,10		  -125
750,51		  -161
750,91		  7
751,32		  -68
751,73		  -220
752,13		  -24
752,54		  -32
752,95		  -197
753,35		  -85
753,76		  -7
754,16		  -137
754,57		  -148
754,98		  0
755,38		  -82
755,79		  -203
756,20		  -14
756,60		  -27
757,01		  -201
757,42		  -53
757,82		  9
758,23		  -138
758,63		  -132
759,04		  15
759,45		  -67
759,85		  -198
760,26		  4
760,67		  -16
761,07		  -187
761,48		  -43
761,89		  9
762,29		  -124
762,70		  -109
763,10		  24
763,51		  -72
763,92		  -178
764,32		  13
764,73		  -26
765,14		  -196
765,54		  -36
765,95		  18
766,36		  -148
766,76		  -111
767,17		  18
767,57		  -83
767,98		  -193
768,39		  0
768,79		  -30
769,20		  -207
769,61		  -42
770,01		  -7
770,42		  -153
770,82		  -113
771,23		  -4
771,64		  -101
772,04		  -195
772,45		  -7
772,86		  -62
773,26		  -216
773,67		  -45
774,08		  -15
774,48		  -177
774,89		  -111
775,29		  12
775,70		  -105
776,11		  -182
776,51		  1
776,92		  -36
777,33		  -208
777,73		  -36
778,14		  -4
778,55		  -167
778,95		  -90
779,36		  5
779,76		  -98
780,17		  -160
780,58		  13
780,98		  -48
781,39		  -196
781,80		  -8
782,20		  -2
782,61		  -164
783,02		  -71
783,42		  33
783,83		  -100
784,23		  -153
784,64		  27
785,05		  -42
785,45		  -202
785,86		  -17
786,27		  -2
786,67		  -179
787,08		  -74
787,48		  7
787,89		  -117
788,30		  -147
788,70		  4
789,11		  -61
789,52		  -209
789,92		  -10
790,33		  -26
790,74		  -196
791,14		  -71
791,55		  2
791,95		  -134
792,36		  -159
792,77		  9
793,17		  -78
793,58		  -220
793,99		  -23
794,39		  -28
794,80		  -203
795,21		  -78
795,61		  5
796,02		  -139
796,42		  -137
796,83		  -1
797,24		  -72
797,64		  -196
798,05		  -8
798,46		  -28
798,86		  -199
799,27		  -47
799,67		  3
800,08		  -137
800,49		  -116
800,89		  27
801,30		  -64
801,71		  -190
802,11		  15
802,52		  -15
802,93		  -187
803,33		  -42
803,74		  18
804,14		  -128
804,55		  -112
804,96		  21
805,36		  -78
805,77		  -179
806,18		  -3
806,58		  -34
806,99		  -201
807,40		  -36
807,80		  -1
808,21		  -156
808,61		  -105
809,02		  18
809,43		  -89
809,83		  -191
810,24		  4
810,65		  -41
811,05		  -221
811,46		  -46
811,87		  -12
812,27		  -163
812,68		  -124
