Control Word: 0x6d
State Word: 0x6
Thershold Trigger: 100 LSB
Local  Dosa: -60 LSB
Global Dosa: -140 LSB
Avergage Amplitude meaurements :-6
Quanity Measure Amplitudes: 2486
Counter Events Trigger: 3
Time Exposition: 1000 mS
---------------------------------------------------------------------------
RAW Amplitudes data
---------------------------------------------------------------------------
Time(mS)	 Value(LSB)
0,40		  330
0,80		  153
1,21		  75
1,61		  124
2,01		  90
2,41		  54
2,82		  24
3,22		  10
3,62		  0
4,02		  -34
4,42		  -47
4,83		  -60
5,23		  -53
5,63		  -38
6,03		  -30
6,44		  -3
6,84		  14
7,24		  21
7,64		  32
8,05		  64
8,45		  86
8,85		  64
9,25		  45
9,65		  24
10,06		  16
10,46		  12
10,86		  10
11,26		  27
11,67		  59
12,07		  76
12,47		  82
12,87		  89
13,27		  101
13,68		  111
14,08		  117
14,48		  117
14,88		  121
15,29		  113
15,69		  100
16,09		  106
16,49		  99
16,89		  70
17,30		  56
17,70		  40
18,10		  10
18,50		  -27
18,91		  -23
19,31		  -15
19,71		  -18
20,11		  -16
20,51		  -15
20,92		  -15
21,32		  -38
21,72		  -74
22,12		  -97
22,53		  -109
22,93		  -119
23,33		  -123
23,73		  -117
24,14		  -116
24,54		  -111
24,94		  -107
25,34		  -92
25,74		  -81
26,15		  -77
26,55		  -45
26,95		  -27
27,35		  -23
27,76		  -20
28,16		  7
28,56		  28
28,96		  15
29,36		  14
29,77		  -14
30,17		  -19
30,57		  -11
30,97		  -6
31,38		  16
31,78		  52
32,18		  78
32,58		  96
32,98		  110
33,39		  127
33,79		  135
34,19		  135
34,59		  128
35,00		  129
35,40		  109
35,80		  86
36,20		  69
36,60		  45
37,01		  40
37,41		  32
37,81		  15
38,21		  -9
38,62		  -34
39,02		  -25
39,42		  -14
39,82		  -5
40,23		  2
40,63		  4
41,03		  6
41,43		  -4
41,83		  -30
42,24		  -46
42,64		  -80
43,04		  -101
43,44		  -111
43,85		  -116
44,25		  -125
44,65		  -129
45,05		  -132
45,45		  -125
45,86		  -115
46,26		  -106
46,66		  -70
47,06		  -48
47,47		  -42
47,87		  -33
48,27		  4
48,67		  33
49,07		  18
49,48		  11
49,88		  12
50,28		  14
50,68		  17
51,09		  12
51,49		  32
51,89		  61
52,29		  76
52,70		  81
53,10		  90
53,50		  101
53,90		  105
54,30		  104
54,71		  114
55,11		  127
55,51		  97
55,91		  76
56,32		  63
56,72		  51
57,12		  43
57,52		  44
57,92		  39
58,33		  8
58,73		  -14
59,13		  0
59,53		  4
59,94		  8
60,34		  5
60,74		  0
61,14		  -4
61,54		  -32
61,95		  -76
62,35		  -97
62,75		  -107
63,15		  -122
63,56		  -134
63,96		  -134
64,36		  -134
64,76		  -135
65,16		  -128
65,57		  -106
65,97		  -89
66,37		  -75
66,77		  -40
67,18		  -16
67,58		  3
67,98		  22
68,38		  37
68,79		  47
69,19		  17
69,59		  3
69,99		  -6
70,39		  -11
70,80		  -5
71,20		  -3
71,60		  20
72,00		  59
72,41		  78
72,81		  83
73,21		  97
73,61		  106
74,01		  -353
74,42		  -1893
74,82		  -2359
75,22		  -2269
75,62		  -1986
76,03		  -1678
76,43		  -1536
76,83		  -1361
77,23		  -1122
77,63		  -1001
78,04		  -970
78,44		  -1067
78,84		  -946
79,24		  -897
79,65		  -857
80,05		  -770
80,45		  -637
80,85		  -459
81,26		  -195
81,66		  -222
82,06		  -216
82,46		  -224
82,86		  -250
83,27		  -218
83,67		  -213
84,07		  -212
84,47		  -188
84,88		  -196
85,28		  -169
85,68		  -169
86,08		  -358
86,48		  -541
86,89		  -387
87,29		  -180
87,69		  -250
88,09		  -330
88,50		  -284
88,90		  -272
89,30		  -226
89,70		  -215
90,10		  -222
90,51		  -176
90,91		  -169
91,31		  -149
91,71		  -84
92,12		  -69
92,52		  -30
92,92		  98
93,32		  107
93,72		  250
94,13		  225
94,53		  88
94,93		  -46
95,33		  -9
95,74		  -26
96,14		  149
96,54		  242
96,94		  300
97,35		  242
97,75		  221
98,15		  198
98,55		  97
98,95		  -50
99,36		  -26
99,76		  -26
100,16		  -237
100,56		  -249
100,97		  -150
101,37		  -54
101,77		  -135
102,17		  -166
102,57		  20
102,98		  -139
103,38		  -172
103,78		  -234
104,18		  -314
104,59		  -95
104,99		  1486
105,39		  2476
105,79		  2241
106,19		  1970
106,60		  1775
107,00		  1634
107,40		  1466
107,80		  1318
108,21		  1196
108,61		  1106
109,01		  1008
109,41		  882
109,81		  788
110,22		  707
110,62		  630
111,02		  568
111,42		  515
111,83		  476
112,23		  457
112,63		  445
113,03		  426
113,44		  386
113,84		  365
114,24		  345
114,64		  330
115,04		  306
115,45		  285
115,85		  260
116,25		  232
116,65		  196
117,06		  166
117,46		  156
117,86		  138
118,26		  120
118,66		  78
119,07		  43
119,47		  45
119,87		  40
120,27		  34
120,68		  31
121,08		  23
121,48		  12
121,88		  -20
122,28		  -61
122,69		  -85
123,09		  -86
123,49		  -98
123,89		  -104
124,30		  -98
124,70		  -105
125,10		  -97
125,50		  -82
125,91		  -60
126,31		  -64
126,71		  -58
127,11		  -34
127,51		  -19
127,92		  -14
128,32		  -8
128,72		  25
129,12		  32
129,53		  6
129,93		  -3
130,33		  -11
130,73		  -14
131,13		  -11
131,54		  -2
131,94		  20
132,34		  56
132,74		  81
133,15		  89
133,55		  111
133,95		  131
134,35		  134
134,75		  134
135,16		  127
135,56		  117
135,96		  98
136,36		  77
136,77		  56
137,17		  42
137,57		  35
137,97		  25
138,37		  20
138,78		  -3
139,18		  -30
139,58		  -23
139,98		  -16
140,39		  -14
140,79		  -8
141,19		  -5
141,59		  1
142,00		  -22
142,40		  -61
142,80		  -86
143,20		  -94
143,60		  -111
144,01		  -120
144,41		  -127
144,81		  -132
145,21		  -132
145,62		  -126
146,02		  -110
146,42		  -106
146,82		  -89
147,22		  -60
147,63		  -45
148,03		  -33
148,43		  -17
148,83		  24
149,24		  40
149,64		  20
150,04		  16
150,44		  15
150,84		  18
151,25		  34
151,65		  48
152,05		  52
152,45		  76
152,86		  89
153,26		  87
153,66		  99
154,06		  104
154,47		  110
154,87		  116
155,27		  115
155,67		  106
156,07		  88
156,48		  78
156,88		  70
157,28		  59
157,68		  48
158,09		  46
158,49		  37
158,89		  2
159,29		  -13
159,69		  -3
160,10		  4
160,50		  3
160,90		  -3
161,30		  -3
161,71		  -13
162,11		  -44
162,51		  -85
162,91		  -112
163,31		  -122
163,72		  -138
164,12		  -127
164,52		  -109
164,92		  -128
165,33		  -132
165,73		  -124
166,13		  -105
166,53		  -91
166,93		  -69
167,34		  -31
167,74		  -12
168,14		  -9
168,54		  -1
168,95		  39
169,35		  40
169,75		  10
170,15		  0
170,56		  -11
170,96		  -14
171,36		  -15
171,76		  -14
172,16		  14
172,57		  51
172,97		  72
173,37		  85
173,77		  104
174,18		  110
174,58		  123
174,98		  138
175,38		  143
175,78		  137
176,19		  117
176,59		  100
176,99		  86
177,39		  85
177,80		  54
178,20		  36
178,60		  15
179,00		  -25
179,40		  -35
179,81		  -16
180,21		  -13
180,61		  -17
181,01		  -11
181,42		  -7
181,82		  0
182,22		  -78
182,62		  -1139
183,02		  -2466
183,43		  -2592
183,83		  -2393
184,23		  -2090
184,63		  -1795
185,04		  -1654
185,44		  -1432
185,84		  -1208
186,24		  -1110
186,65		  -1119
187,05		  -1099
187,45		  -913
187,85		  -937
188,25		  -823
188,66		  -755
189,06		  -548
189,46		  -301
189,86		  -166
190,27		  -170
190,67		  -168
191,07		  -130
191,47		  -120
191,87		  -101
192,28		  -48
192,68		  -36
193,08		  0
193,48		  30
193,89		  17
194,29		  17
194,69		  -245
195,09		  -230
195,49		  -21
195,90		  -157
196,30		  -297
196,70		  -272
197,10		  -195
197,51		  -194
197,91		  -196
198,31		  -139
198,71		  -163
199,12		  -195
199,52		  -161
199,92		  -159
200,32		  -128
200,72		  -103
201,13		  -108
201,53		  36
201,93		  42
202,33		  106
202,74		  25
203,14		  -190
203,54		  -284
203,94		  -227
204,34		  -206
204,75		  12
205,15		  87
205,55		  113
205,95		  92
206,36		  59
206,76		  72
207,16		  -3
207,56		  -80
207,96		  -142
208,37		  -110
208,77		  -150
209,17		  -172
209,57		  -55
209,98		  -43
210,38		  -156
210,78		  17
211,18		  73
211,58		  -82
211,99		  -29
212,39		  -138
212,79		  -101
213,19		  571
213,60		  2336
214,00		  2654
214,40		  2362
214,80		  2106
215,21		  1894
215,61		  1716
216,01		  1551
216,41		  1387
216,81		  1241
217,22		  1104
217,62		  992
218,02		  890
218,42		  794
218,83		  709
219,23		  615
219,63		  523
220,03		  473
220,43		  423
220,84		  380
221,24		  343
221,64		  300
222,04		  258
222,45		  207
222,85		  143
223,25		  93
223,65		  68
224,05		  40
224,46		  21
224,86		  8
225,26		  -7
225,66		  -17
226,07		  -17
226,47		  -7
226,87		  -9
227,27		  8
227,67		  22
228,08		  25
228,48		  25
228,88		  27
229,28		  56
229,69		  54
230,09		  32
230,49		  24
230,89		  24
231,30		  20
231,70		  29
232,10		  52
232,50		  57
232,90		  82
233,31		  99
233,71		  103
234,11		  121
234,51		  137
234,92		  145
235,32		  143
235,72		  138
236,12		  128
236,52		  108
236,93		  92
237,33		  68
237,73		  49
238,13		  36
238,54		  25
238,94		  7
239,34		  -25
239,74		  -25
240,14		  -11
240,55		  -4
240,95		  -1
241,35		  2
241,75		  1
242,16		  -2
242,56		  -32
242,96		  -63
243,36		  -82
243,77		  -90
244,17		  -107
244,57		  -108
244,97		  -97
245,37		  -122
245,78		  -135
246,18		  -130
246,58		  -111
246,98		  -105
247,39		  -80
247,79		  -52
248,19		  -42
248,59		  -32
248,99		  -11
249,40		  32
249,80		  27
250,20		  10
250,60		  8
251,01		  3
251,41		  1
251,81		  7
252,21		  13
252,61		  41
253,02		  72
253,42		  81
253,82		  81
254,22		  90
254,63		  94
255,03		  104
255,43		  111
255,83		  109
256,23		  102
256,64		  84
257,04		  71
257,44		  64
257,84		  76
258,25		  48
258,65		  35
259,05		  19
259,45		  -18
259,86		  -19
260,26		  -5
260,66		  -2
261,06		  -4
261,46		  -5
261,87		  -8
262,27		  -17
262,67		  -56
263,07		  -94
263,48		  -111
263,88		  -118
264,28		  -134
264,68		  -137
265,08		  -130
265,49		  -127
265,89		  -126
266,29		  -113
266,69		  -97
267,10		  -85
267,50		  -50
267,90		  -25
268,30		  -14
268,70		  -12
269,11		  -1
269,51		  40
269,91		  29
270,31		  20
270,72		  28
271,12		  -3
271,52		  -16
271,92		  -18
272,33		  -12
272,73		  20
273,13		  51
273,53		  69
273,93		  80
274,34		  99
274,74		  104
275,14		  118
275,54		  121
275,95		  126
276,35		  119
276,75		  104
277,15		  96
277,55		  83
277,96		  67
278,36		  57
278,76		  51
279,16		  32
279,57		  -4
279,97		  5
280,37		  18
280,77		  14
281,17		  13
281,58		  12
281,98		  11
282,38		  3
282,78		  -33
283,19		  -57
283,59		  -60
283,99		  -90
284,39		  -116
284,79		  -120
285,20		  -131
285,60		  -139
286,00		  -140
286,40		  -138
286,81		  -124
287,21		  -123
287,61		  -93
288,01		  -65
288,42		  -59
288,82		  -51
289,22		  -30
289,62		  11
290,02		  5
290,43		  -6
290,83		  -3
291,23		  -6
291,63		  3
292,04		  10
292,44		  24
292,84		  57
293,24		  79
293,64		  93
294,05		  106
294,45		  119
294,85		  129
295,25		  129
295,66		  120
296,06		  118
296,46		  102
296,86		  -26
297,26		  -1234
297,67		  -2381
298,07		  -2453
298,47		  -2208
298,87		  -1910
299,28		  -1667
299,68		  -1540
300,08		  -1301
300,48		  -1085
300,88		  -1016
301,29		  -1061
301,69		  -1013
302,09		  -855
302,49		  -900
302,90		  -817
303,30		  -783
303,70		  -639
304,10		  -381
304,51		  -296
304,91		  -286
305,31		  -300
305,71		  -272
306,11		  -264
306,52		  -256
306,92		  -197
307,32		  -190
307,72		  -150
308,13		  -90
308,53		  -94
308,93		  -132
309,33		  -372
309,73		  -304
310,14		  -234
310,54		  -126
310,94		  56
311,34		  62
311,75		  26
312,15		  0
312,55		  30
312,95		  39
313,35		  63
313,76		  108
314,16		  85
314,56		  101
314,96		  135
315,37		  -70
315,77		  -237
316,17		  -127
316,57		  -18
316,98		  56
317,38		  11
317,78		  -209
318,18		  -260
318,58		  -193
318,99		  -102
319,39		  93
319,79		  140
320,19		  157
320,60		  171
321,00		  106
321,40		  87
321,80		  -37
322,20		  -195
322,61		  -175
323,01		  -139
323,41		  -284
323,81		  -372
324,22		  -235
324,62		  -214
325,02		  -301
325,42		  -64
325,82		  -86
326,23		  -208
326,63		  -147
327,03		  -263
327,43		  -195
327,84		  749
328,24		  2403
328,64		  2475
329,04		  2165
329,44		  1938
329,85		  1772
330,25		  1581
330,65		  1400
331,05		  1252
331,46		  1134
331,86		  1028
332,26		  912
332,66		  823
333,07		  764
333,47		  720
333,87		  674
334,27		  620
334,67		  586
335,08		  552
335,48		  507
335,88		  475
336,28		  436
336,69		  385
337,09		  334
337,49		  295
337,89		  245
338,29		  219
338,70		  190
339,10		  159
339,50		  125
339,90		  77
340,31		  68
340,71		  75
341,11		  69
341,51		  62
341,91		  62
342,32		  58
342,72		  40
343,12		  3
343,52		  -39
343,93		  -61
344,33		  -60
344,73		  -66
345,13		  -91
345,53		  -103
345,94		  -109
346,34		  -117
346,74		  -113
347,14		  -99
347,55		  -87
347,95		  -59
348,35		  -38
348,75		  -24
349,16		  -9
349,56		  10
349,96		  49
350,36		  39
350,76		  21
351,17		  18
351,57		  14
351,97		  11
352,37		  14
352,78		  31
353,18		  52
353,58		  77
353,98		  89
354,38		  90
354,79		  106
355,19		  107
355,59		  109
355,99		  117
356,40		  112
356,80		  99
357,20		  101
357,60		  101
358,00		  57
358,41		  47
358,81		  42
359,21		  35
359,61		  14
360,02		  -20
360,42		  -12
360,82		  1
361,22		  1
361,63		  -3
362,03		  -7
362,43		  -10
362,83		  -23
363,23		  -61
363,64		  -97
364,04		  -112
364,44		  -116
364,84		  -126
365,25		  -125
365,65		  -124
366,05		  -129
366,45		  -126
366,85		  -108
367,26		  -91
367,66		  -79
368,06		  -48
368,46		  -24
368,87		  -17
369,27		  -13
369,67		  9
370,07		  49
370,47		  43
370,88		  4
371,28		  -6
371,68		  -11
372,08		  -18
372,49		  -17
372,89		  -2
373,29		  33
373,69		  59
374,09		  74
374,50		  89
374,90		  112
375,30		  121
375,70		  126
376,11		  127
376,51		  124
376,91		  116
377,31		  104
377,72		  92
378,12		  59
378,52		  45
378,92		  26
379,32		  16
379,73		  -5
380,13		  -47
380,53		  -44
380,93		  -25
381,34		  -19
381,74		  -28
382,14		  -37
382,54		  -30
382,94		  -20
383,35		  -39
383,75		  -85
384,15		  -96
384,55		  -107
384,96		  -120
385,36		  -108
385,76		  -98
386,16		  -98
386,56		  -100
386,97		  -93
387,37		  -83
387,77		  -73
388,17		  -49
388,58		  -29
388,98		  -20
389,38		  -16
389,78		  9
390,19		  42
390,59		  24
390,99		  11
391,39		  10
391,79		  3
392,20		  1
392,60		  6
393,00		  20
393,40		  55
393,81		  80
394,21		  92
394,61		  95
395,01		  108
395,41		  112
395,82		  120
396,22		  121
396,62		  97
397,02		  81
397,43		  64
397,83		  43
398,23		  12
398,63		  11
399,03		  16
399,44		  11
399,84		  -15
400,24		  -38
400,64		  -3
401,05		  21
401,45		  25
401,85		  36
402,25		  34
402,65		  -41
403,06		  -1138
403,46		  -2444
403,86		  -2582
404,26		  -2380
404,67		  -2092
405,07		  -1819
405,47		  -1655
405,87		  -1411
406,28		  -1196
406,68		  -1136
407,08		  -1152
407,48		  -1123
407,88		  -947
408,29		  -937
408,69		  -813
409,09		  -755
409,49		  -569
409,90		  -288
410,30		  -113
410,70		  -139
411,10		  -147
411,50		  -109
411,91		  -111
412,31		  -117
412,71		  -89
413,11		  -93
413,52		  -50
413,92		  -2
414,32		  -9
414,72		  -17
415,12		  -272
415,53		  -285
415,93		  -140
416,33		  -46
416,73		  139
417,14		  201
417,54		  141
417,94		  116
418,34		  105
418,74		  69
419,15		  59
419,55		  61
419,95		  3
420,35		  -14
420,76		  -10
421,16		  -167
421,56		  -380
421,96		  -270
422,37		  -158
422,77		  -45
423,17		  -107
423,57		  -322
423,97		  -406
424,38		  -337
424,78		  -291
425,18		  -70
425,58		  15
425,99		  39
426,39		  20
426,79		  -19
427,19		  9
427,59		  -93
428,00		  -131
428,40		  -79
428,80		  -109
429,20		  -281
429,61		  -329
430,01		  -136
430,41		  -65
430,81		  -203
431,21		  -25
431,62		  13
432,02		  -121
432,42		  -61
432,82		  -191
433,23		  -150
433,63		  589
434,03		  2357
434,43		  2637
434,84		  2332
435,24		  2098
435,64		  1902
436,04		  1720
436,44		  1551
436,85		  1402
437,25		  1250
437,65		  1115
438,05		  988
438,46		  859
438,86		  763
439,26		  676
439,66		  593
440,06		  500
440,47		  426
440,87		  397
441,27		  361
441,67		  319
442,08		  285
442,48		  269
442,88		  251
443,28		  206
443,68		  148
444,09		  113
444,49		  89
444,89		  47
445,29		  19
445,70		  0
446,10		  -16
446,50		  -35
446,90		  -47
447,30		  -39
447,71		  -36
448,11		  -42
448,51		  -12
448,91		  9
449,32		  10
449,72		  21
450,12		  54
450,52		  77
450,93		  58
451,33		  45
451,73		  38
452,13		  35
452,53		  30
452,94		  26
453,34		  36
453,74		  59
454,14		  74
454,55		  80
454,95		  90
455,35		  109
455,75		  119
456,15		  120
456,56		  118
456,96		  123
457,36		  118
457,76		  90
458,17		  65
458,57		  41
458,97		  47
459,37		  45
459,77		  28
460,18		  1
460,58		  -19
460,98		  -10
461,38		  0
461,79		  6
462,19		  3
462,59		  -4
462,99		  -16
463,40		  -51
463,80		  -86
464,20		  -106
464,60		  -122
465,00		  -121
465,41		  -121
465,81		  -127
466,21		  -128
466,61		  -124
467,02		  -114
467,42		  -89
467,82		  -72
468,22		  -66
468,62		  -41
469,03		  -22
469,43		  -12
469,83		  16
470,23		  60
470,64		  59
471,04		  26
471,44		  11
471,84		  5
472,24		  2
472,65		  -6
473,05		  -6
473,45		  25
473,85		  57
474,26		  80
474,66		  93
475,06		  107
475,46		  123
475,86		  132
476,27		  137
476,67		  149
477,07		  149
477,47		  130
477,88		  115
478,28		  98
478,68		  77
479,08		  61
479,49		  45
479,89		  31
480,29		  -2
480,69		  -31
481,09		  -21
481,50		  -10
481,90		  -10
482,30		  -13
482,70		  6
483,11		  22
483,51		  -19
483,91		  -60
484,31		  -84
484,71		  -95
485,12		  -104
485,52		  -113
485,92		  -112
486,32		  -111
486,73		  -115
487,13		  -116
487,53		  -101
487,93		  -94
488,33		  -83
488,74		  -51
489,14		  -38
489,54		  -38
489,94		  -29
490,35		  4
490,75		  23
491,15		  8
491,55		  -3
491,95		  -4
492,36		  -5
492,76		  -2
493,16		  7
493,56		  29
493,97		  58
494,37		  82
494,77		  94
495,17		  103
495,58		  125
495,98		  135
496,38		  112
496,78		  107
497,18		  100
497,59		  78
497,99		  64
498,39		  45
498,79		  30
499,20		  29
499,60		  21
500,00		  10
500,40		  -13
500,80		  -28
501,21		  -9
501,61		  3
502,01		  7
502,41		  8
502,82		  5
503,22		  4
503,62		  -22
504,02		  -57
504,42		  -86
504,83		  -105
505,23		  -116
505,63		  -131
506,03		  -133
506,44		  -132
506,84		  -137
507,24		  -135
507,64		  -115
508,05		  -104
508,45		  -73
508,85		  -20
509,25		  -23
509,65		  -3
510,06		  25
510,46		  54
510,86		  66
511,26		  41
511,67		  21
512,07		  -316
512,47		  -1840
512,87		  -2476
513,27		  -2437
513,68		  -2097
514,08		  -1723
514,48		  -1526
514,88		  -1364
515,29		  -1128
515,69		  -971
516,09		  -904
516,49		  -967
516,89		  -837
517,30		  -763
517,70		  -777
518,10		  -688
518,50		  -578
518,91		  -411
519,31		  -122
519,71		  -119
520,11		  -103
520,51		  -138
520,92		  -161
521,32		  -119
521,72		  -131
522,12		  -124
522,53		  -102
522,93		  -122
523,33		  -109
523,73		  -133
524,14		  -313
524,54		  -541
524,94		  -384
525,34		  -378
525,74		  -236
526,15		  -58
526,55		  -77
526,95		  -73
527,35		  -97
527,76		  -76
528,16		  -61
528,56		  -68
528,96		  -22
529,36		  -19
529,77		  -91
530,17		  -25
530,57		  -207
530,97		  -280
531,38		  -221
531,78		  -53
532,18		  -48
532,58		  -165
532,98		  -314
533,39		  -268
533,79		  -207
534,19		  12
534,59		  188
535,00		  287
535,40		  258
535,80		  277
536,20		  271
536,60		  214
537,01		  96
537,41		  154
537,81		  147
538,21		  -74
538,62		  -182
539,02		  -203
539,42		  -96
539,82		  -137
540,23		  -166
540,63		  45
541,03		  -101
541,43		  -109
541,83		  -105
542,24		  -198
542,64		  -29
543,04		  1445
543,44		  2605
543,85		  2371
544,25		  2051
544,65		  1781
545,05		  1569
545,45		  1381
545,86		  1215
546,26		  1078
546,66		  951
547,06		  833
547,47		  736
547,87		  662
548,27		  582
548,67		  533
549,07		  507
549,48		  458
549,88		  417
550,28		  389
550,68		  393
551,09		  370
551,49		  320
551,89		  281
552,29		  254
552,70		  228
553,10		  204
553,50		  187
553,90		  194
554,30		  204
554,71		  211
555,11		  197
555,51		  187
555,91		  187
556,32		  187
556,72		  193
557,12		  197
557,52		  162
557,92		  138
558,33		  127
558,73		  103
559,13		  90
559,53		  89
559,94		  79
560,34		  64
560,74		  35
561,14		  18
561,54		  32
561,95		  33
562,35		  24
562,75		  23
563,15		  20
563,56		  2
563,96		  -30
564,36		  -67
564,76		  -100
565,16		  -105
565,57		  -112
565,97		  -126
566,37		  -126
566,77		  -122
567,18		  -123
567,58		  -111
567,98		  -91
568,38		  -83
568,79		  -54
569,19		  -20
569,59		  1
569,99		  22
570,39		  16
570,80		  41
571,20		  43
571,60		  14
572,00		  -3
572,41		  -9
572,81		  -14
573,21		  -16
573,61		  -8
574,01		  14
574,42		  49
574,82		  78
575,22		  83
575,62		  99
576,03		  109
576,43		  117
576,83		  128
577,23		  132
577,63		  126
578,04		  115
578,44		  97
578,84		  70
579,24		  60
579,65		  47
580,05		  34
580,45		  17
580,85		  -24
581,26		  -42
581,66		  -25
582,06		  -22
582,46		  -9
582,86		  4
583,27		  -14
583,67		  -18
584,07		  -38
584,47		  -70
584,88		  -94
585,28		  -93
585,68		  -103
586,08		  -108
586,48		  -106
586,89		  -112
587,29		  -116
587,69		  -108
588,09		  -97
588,50		  -95
588,90		  -71
589,30		  -49
589,70		  -39
590,10		  -29
590,51		  -14
590,91		  25
591,31		  23
591,71		  2
592,12		  0
592,52		  1
592,92		  5
593,32		  14
593,72		  22
594,13		  51
594,53		  81
594,93		  100
595,33		  119
595,74		  141
596,14		  127
596,54		  122
596,94		  117
597,35		  110
597,75		  100
598,15		  79
598,55		  66
598,95		  48
599,36		  37
599,76		  29
600,16		  28
600,56		  19
600,97		  -16
601,37		  -22
601,77		  -7
602,17		  1
602,57		  5
602,98		  9
603,38		  9
603,78		  3
604,18		  -34
604,59		  -71
604,99		  -96
605,39		  -109
605,79		  -123
606,19		  -126
606,60		  -133
607,00		  -141
607,40		  -142
607,80		  -132
608,21		  -98
608,61		  -82
609,01		  -76
609,41		  -45
609,81		  -33
610,22		  -25
610,62		  -3
611,02		  36
611,42		  28
611,83		  12
612,23		  4
612,63		  -7
613,03		  -4
613,44		  -3
613,84		  0
614,24		  25
614,64		  51
615,04		  69
615,45		  80
615,85		  94
616,25		  103
616,65		  113
617,06		  117
617,46		  123
617,86		  121
618,26		  101
618,66		  96
619,07		  80
619,47		  67
619,87		  63
620,27		  71
620,68		  59
621,08		  15
621,48		  -4
621,88		  -2
622,28		  -10
622,69		  -550
623,09		  -2099
623,49		  -2532
623,89		  -2422
624,30		  -2153
624,70		  -1865
625,10		  -1722
625,50		  -1503
625,91		  -1279
626,31		  -1169
626,71		  -1128
627,11		  -1180
627,51		  -1022
627,92		  -993
628,32		  -907
628,72		  -827
629,12		  -663
629,53		  -449
629,93		  -196
630,33		  -207
630,73		  -165
631,13		  -102
631,54		  -121
631,94		  -110
632,34		  -90
632,74		  -102
633,15		  -103
633,55		  -115
633,95		  -102
634,35		  -51
634,75		  -234
635,16		  -314
635,56		  -64
635,96		  -80
636,36		  20
636,77		  202
637,17		  157
637,57		  160
637,97		  144
638,37		  100
638,78		  102
639,18		  59
639,58		  45
639,98		  29
640,39		  -63
640,79		  -34
641,19		  -348
641,59		  -337
642,00		  -241
642,40		  -66
642,80		  -67
643,20		  -199
643,60		  -309
644,01		  -241
644,41		  -261
644,81		  -69
645,21		  17
645,62		  85
646,02		  32
646,42		  10
646,82		  2
647,22		  -99
647,63		  -230
648,03		  -290
648,43		  -254
648,83		  -234
649,24		  -300
649,64		  -227
650,04		  -131
650,44		  -189
650,84		  -105
651,25		  113
651,65		  -54
652,05		  -50
652,45		  -113
652,86		  -155
653,26		  148
653,66		  1861
654,06		  2652
654,47		  2372
654,87		  2116
655,27		  1909
655,67		  1724
656,07		  1572
656,48		  1432
656,88		  1294
657,28		  1164
657,68		  1054
658,09		  949
658,49		  842
658,89		  760
659,29		  669
659,69		  613
660,10		  561
660,50		  483
660,90		  418
661,30		  347
661,71		  307
662,11		  281
662,51		  257
662,91		  232
663,31		  203
663,72		  178
664,12		  144
664,52		  90
664,92		  36
665,33		  -5
665,73		  -23
666,13		  -43
666,53		  -60
666,93		  -70
667,34		  -74
667,74		  -77
668,14		  -65
668,54		  -40
668,95		  -34
669,35		  -13
669,75		  13
670,15		  21
670,56		  22
670,96		  40
671,36		  69
671,76		  50
672,16		  27
672,57		  28
672,97		  30
673,37		  5
673,77		  -5
674,18		  4
674,58		  35
674,98		  67
675,38		  86
675,78		  89
676,19		  101
676,59		  120
676,99		  134
677,39		  142
677,80		  145
678,20		  124
678,60		  105
679,00		  98
679,40		  71
679,81		  60
680,21		  47
680,61		  34
681,01		  11
681,42		  -31
681,82		  -36
682,22		  -26
682,62		  -23
683,02		  -26
683,43		  -22
683,83		  -15
684,23		  -29
684,63		  -59
685,04		  -78
685,44		  -82
685,84		  -73
686,24		  -98
686,65		  -108
687,05		  -108
687,45		  -111
687,85		  -117
688,25		  -113
688,66		  -99
689,06		  -93
689,46		  -70
689,86		  -48
690,27		  -43
690,67		  -36
691,07		  -16
691,47		  15
691,87		  8
692,28		  -1
692,68		  -9
693,08		  -9
693,48		  -8
693,89		  -3
694,29		  16
694,69		  49
695,09		  79
695,49		  98
695,90		  104
696,30		  114
696,70		  125
697,10		  119
697,51		  121
697,91		  122
698,31		  115
698,71		  103
699,12		  72
699,52		  37
699,92		  33
700,32		  29
700,72		  23
701,13		  13
701,53		  -25
701,93		  -23
702,33		  -4
702,74		  5
703,14		  6
703,54		  4
703,94		  1
704,34		  -11
704,75		  -43
705,15		  -75
705,55		  -99
705,95		  -110
706,36		  -125
706,76		  -128
707,16		  -133
707,56		  -142
707,96		  -142
708,37		  -124
708,77		  -106
709,17		  -100
709,57		  -65
709,98		  -32
710,38		  -18
710,78		  -4
711,18		  35
711,58		  76
711,99		  44
712,39		  16
712,79		  11
713,19		  10
713,60		  5
714,00		  5
714,40		  16
714,80		  40
715,21		  66
715,61		  77
716,01		  83
716,41		  101
716,81		  110
717,22		  109
717,62		  112
718,02		  114
718,42		  103
718,83		  93
719,23		  89
719,63		  60
720,03		  55
720,43		  53
720,84		  44
721,24		  22
721,64		  -17
722,04		  -20
722,45		  -9
722,85		  -11
723,25		  -14
723,65		  -13
724,05		  -2
724,46		  -15
724,86		  -69
725,26		  -98
725,66		  -118
726,07		  -123
726,47		  -124
726,87		  -121
727,27		  -121
727,67		  -123
728,08		  -119
728,48		  -97
728,88		  -79
729,28		  -75
729,69		  -54
730,09		  -32
730,49		  -21
730,89		  -17
731,30		  0
731,70		  33
732,10		  16
732,50		  -3
732,90		  -4
733,31		  -2
733,71		  -6
734,11		  0
734,51		  14
734,92		  45
735,32		  57
735,72		  -660
736,12		  -2123
736,52		  -2374
736,93		  -2215
737,33		  -1911
737,73		  -1586
738,13		  -1428
738,54		  -1241
738,94		  -1028
739,34		  -942
739,74		  -957
740,14		  -1002
740,55		  -847
740,95		  -862
741,35		  -793
741,75		  -764
742,16		  -604
742,56		  -398
742,96		  -180
743,36		  -192
743,77		  -168
744,17		  -136
744,57		  -147
744,97		  -150
745,37		  -167
745,78		  -198
746,18		  -181
746,58		  -194
746,98		  -211
747,39		  -203
747,79		  -461
748,19		  -568
748,59		  -405
748,99		  -211
749,40		  -194
749,80		  -35
750,20		  -9
750,60		  3
751,01		  15
751,41		  20
751,81		  63
752,21		  36
752,61		  4
753,02		  16
753,42		  -41
753,82		  -29
754,22		  -315
754,63		  -252
755,03		  -146
755,43		  35
755,83		  32
756,23		  -126
756,64		  -210
757,04		  -113
757,44		  -92
757,84		  137
758,25		  227
758,65		  268
759,05		  221
759,45		  185
759,86		  167
760,26		  68
760,66		  -34
761,06		  -101
761,46		  -115
761,87		  -172
762,27		  -276
762,67		  -140
763,07		  -75
763,48		  -166
763,88		  -42
764,28		  74
764,68		  -118
765,08		  -122
765,49		  -260
765,89		  -291
766,29		  163
766,69		  1919
767,10		  2462
767,50		  2154
767,90		  1892
768,30		  1684
768,70		  1511
769,11		  1379
769,51		  1243
769,91		  1127
770,31		  1029
770,72		  925
771,12		  836
771,52		  776
771,92		  726
772,33		  632
772,73		  550
773,13		  484
773,53		  430
773,93		  382
774,34		  337
774,74		  312
775,14		  312
775,54		  311
775,95		  304
776,35		  293
776,75		  287
777,15		  276
777,55		  265
777,96		  255
778,36		  245
778,76		  220
779,16		  195
779,57		  172
779,97		  140
780,37		  125
780,77		  106
781,17		  83
781,58		  42
781,98		  23
782,38		  34
782,78		  17
783,19		  9
783,59		  2
783,99		  3
784,39		  1
784,79		  -20
785,20		  -47
785,60		  -70
786,00		  -84
786,40		  -94
786,81		  -102
787,21		  -99
787,61		  -102
788,01		  -107
788,42		  -108
788,82		  -97
789,22		  -87
789,62		  -86
790,02		  -57
790,43		  -40
790,83		  -41
791,23		  -29
791,63		  0
792,04		  28
792,44		  12
792,84		  -1
793,24		  -3
793,64		  3
794,05		  8
794,45		  15
794,85		  51
795,25		  78
795,66		  85
796,06		  99
796,46		  105
796,86		  119
797,26		  130
797,67		  127
798,07		  125
798,47		  123
798,87		  105
799,28		  86
799,68		  64
800,08		  39
800,48		  38
800,88		  26
801,29		  13
801,69		  -12
802,09		  -33
802,49		  -17
802,90		  -3
803,30		  2
803,70		  2
804,10		  8
804,51		  8
