Control Word: 0xd
State Word: 0x6
Thershold Trigger: 100 LSB
Local  Dosa: 52174 LSB
Global Dosa: 621568 LSB
Level DC: 0 LSB
Avergage Amplitude meaurements :41539
Quanity Measure Amplitudes: 314
Counter Events Trigger: 5
Time Exposition: 127 mS
---------------------------------------------------------------------------
RAW Amplitudes data
---------------------------------------------------------------------------
Time(mS)	 Value(LSB)
0,40		  42138
0,81		  41899
1,21		  41955
1,62		  41933
2,02		  41890
2,43		  41860
2,83		  41833
3,24		  41813
3,64		  41789
4,04		  41761
4,45		  41741
4,85		  41725
5,26		  41707
5,66		  41691
6,07		  41676
6,47		  41657
6,88		  41648
7,28		  41632
7,68		  41629
8,09		  41617
8,49		  41603
8,90		  41589
9,30		  41585
9,71		  41582
10,11		  41569
10,52		  41560
10,92		  41549
11,32		  41536
11,73		  41534
12,13		  41527
12,54		  41520
12,94		  41508
13,35		  41494
13,75		  41509
14,16		  41507
14,56		  41494
14,96		  41498
15,37		  41492
15,77		  41490
16,18		  41493
16,58		  41491
16,99		  41506
17,39		  41510
17,80		  41504
18,20		  41508
18,61		  41508
19,01		  41516
19,41		  41519
19,82		  41517
20,22		  41526
20,63		  41530
21,03		  41531
21,44		  41531
21,84		  41543
22,25		  41546
22,65		  41555
23,05		  41562
23,46		  41583
23,86		  41591
24,27		  41562
24,67		  41548
25,08		  41555
25,48		  41552
25,89		  41554
26,29		  41550
26,69		  41549
27,10		  41547
27,50		  41554
27,91		  41582
28,31		  41584
28,72		  41581
29,12		  41600
29,53		  41559
29,93		  41550
30,33		  40522
30,74		  38812
31,14		  38824
31,55		  38995
31,95		  39163
32,36		  39759
32,76		  39778
33,17		  39952
33,57		  40134
33,97		  40315
34,38		  40406
34,78		  40386
35,19		  40483
35,59		  40543
36,00		  40850
36,40		  40660
36,81		  40778
37,21		  41134
37,61		  40965
38,02		  41091
38,42		  41091
38,83		  41043
39,23		  43340
39,64		  44201
40,04		  43882
40,45		  43647
40,85		  43415
41,25		  43206
41,66		  43049
42,06		  42897
42,47		  42794
42,87		  41494
43,28		  39810
43,68		  39699
44,09		  39884
44,49		  40082
44,89		  40434
45,30		  40517
45,70		  40631
46,11		  40796
46,51		  40652
46,92		  40803
47,32		  40844
47,73		  40956
48,13		  40738
48,54		  41056
48,94		  41023
49,34		  41162
49,75		  41173
50,15		  41332
50,56		  41140
50,96		  41131
51,37		  41176
51,77		  41194
52,18		  41303
52,58		  41215
52,98		  41298
53,39		  41342
53,79		  41253
54,20		  41487
54,60		  41285
55,01		  41264
55,41		  41638
55,82		  41677
56,22		  41564
56,62		  41533
57,03		  41507
57,43		  41286
57,84		  41416
58,24		  41366
58,65		  41360
59,05		  41473
59,46		  41371
59,86		  41438
60,26		  41607
60,67		  41468
61,07		  41497
61,48		  41590
61,88		  41485
62,29		  41787
62,69		  41784
63,10		  41345
63,50		  41477
63,90		  41505
64,31		  41404
64,71		  41629
65,12		  41613
65,52		  41618
65,93		  41618
66,33		  41387
66,74		  41455
67,14		  41659
67,54		  41378
67,95		  41533
68,35		  41682
68,76		  41381
69,16		  41437
69,57		  41592
69,97		  41600
70,38		  41474
70,78		  41493
71,18		  41384
71,59		  41499
71,99		  41463
72,40		  41397
72,80		  41522
73,21		  41569
73,61		  44048
74,02		  44403
74,42		  44035
74,82		  43739
75,23		  43504
75,63		  43293
76,04		  43104
76,44		  42936
76,85		  42793
77,25		  42667
77,66		  42555
78,06		  42470
78,46		  42374
78,87		  42257
79,27		  42184
79,68		  42110
80,08		  42062
80,49		  42013
80,89		  41961
81,30		  41924
81,70		  41890
82,11		  41851
82,51		  41824
82,91		  41800
83,32		  41783
83,72		  41755
84,13		  41736
84,53		  41719
84,94		  41701
85,34		  41689
85,75		  41674
86,15		  41653
86,55		  41651
86,96		  41638
87,36		  41627
87,77		  41619
88,17		  41605
88,58		  41599
88,98		  41581
89,39		  41580
89,79		  41569
90,19		  41557
90,60		  41548
91,00		  41539
91,41		  41539
91,81		  41525
92,22		  41519
92,62		  41515
93,03		  41503
93,43		  41501
93,83		  41508
94,24		  41503
94,64		  41503
95,05		  41498
95,45		  41496
95,86		  41503
96,26		  41501
96,67		  41500
97,07		  41508
97,47		  41506
97,88		  41509
98,28		  41506
98,69		  41516
99,09		  41518
99,50		  41518
99,90		  41519
100,31		  41569
100,71		  41547
101,11		  41536
101,52		  41533
101,92		  41540
102,33		  41552
102,73		  41555
103,14		  41562
103,54		  41582
103,95		  41589
104,35		  41563
104,75		  41557
105,16		  41563
105,56		  41553
105,97		  41550
106,37		  41552
106,78		  41551
107,18		  41544
107,59		  41537
107,99		  41541
108,39		  41543
108,80		  41540
109,20		  41538
109,61		  41536
110,01		  41552
110,42		  41549
110,82		  41518
111,23		  41514
111,63		  41512
112,04		  41507
112,44		  41497
112,84		  41485
113,25		  41485
113,65		  41483
114,06		  41482
114,46		  41486
114,87		  41482
115,27		  41488
115,68		  41485
116,08		  41488
116,48		  41512
116,89		  41513
117,29		  41500
117,70		  41500
118,10		  41502
118,51		  41506
118,91		  41501
119,32		  41504
119,72		  41506
120,12		  41514
120,53		  41523
120,93		  41525
121,34		  41528
121,74		  41537
122,15		  41542
122,55		  41551
122,96		  41557
123,36		  41561
123,76		  41560
124,17		  41559
124,57		  41559
124,98		  41563
125,38		  41590
125,79		  41567
126,19		  41557
126,60		  41559
127,00		  41548
